<svg xmlns="http://www.w3.org/2000/svg" width="312" height="287" fill="none" viewBox="0 0 312 287">
  <path fill="#fff" d="M0 0h312v287H0z"/>
  <g filter="url(#a)">
    <rect width="280" height="232" x="16" y="16" fill="#fff" rx="4" shape-rendering="crispEdges"/>
    <path fill="#333238" d="m30.863 37-2.552-9.458h1.885l1.2 4.951c.26 1.117.457 2.45.666 3.625h-.291c.222-1.175.431-2.508.704-3.625l1.257-4.951h1.847l1.244 4.951c.273 1.117.489 2.45.711 3.625h-.304c.209-1.175.418-2.508.672-3.625l1.2-4.951h1.892L38.435 37h-1.999l-1.352-5.135c-.254-.997-.425-2.177-.648-3.466h.426c-.241 1.25-.368 2.393-.648 3.466L32.87 37h-2.006Zm13.019-4.145V37h-1.708v-9.458h1.682v4.12h-.165c.388-1.213 1.156-1.848 2.317-1.848 1.46 0 2.431.978 2.431 2.68V37h-1.707v-4.24c0-.933-.514-1.498-1.365-1.498-.863 0-1.485.584-1.485 1.593Zm8.277 4.291c-1.352 0-2.374-.736-2.374-2.14 0-1.592 1.32-2.011 2.698-2.151 1.231-.133 1.745-.159 1.745-.641v-.032c0-.673-.425-1.06-1.212-1.06-.806 0-1.288.406-1.453.876l-1.575-.311c.407-1.244 1.568-1.873 3.028-1.873 1.378 0 2.92.584 2.92 2.438V37h-1.631v-.977h-.064c-.317.621-.996 1.123-2.082 1.123Zm.444-1.25c.99 0 1.638-.654 1.638-1.435v-.825c-.228.177-1.11.285-1.53.342-.742.102-1.282.375-1.282 1.003 0 .603.495.914 1.174.914Zm8.398-5.993v1.333h-4.068v-1.333h4.069Zm-3.072-1.688h1.708v6.773c0 .501.197.723.692.723.152 0 .45-.038.603-.076l.26 1.308a3.948 3.948 0 0 1-1.13.159c-1.371 0-2.133-.705-2.133-1.968v-6.92Zm4.983 3.18-.178-3.853h1.676l-.178 3.853h-1.32Zm6.303 5.751c-1.65 0-2.786-.73-3.034-2.025l1.593-.292c.19.692.68 1.022 1.48 1.022.793 0 1.288-.355 1.288-.819 0-.406-.305-.654-.946-.793l-1.212-.26c-1.352-.286-2.006-.953-2.006-1.994 0-1.326 1.168-2.17 2.888-2.17 1.625 0 2.57.736 2.857 1.847l-1.524.292c-.159-.495-.565-.876-1.308-.876-.685 0-1.206.33-1.206.8 0 .4.273.66.984.812l1.225.254c1.353.285 2 .92 2 1.917 0 1.358-1.276 2.285-3.079 2.285Zm9.68 0c-1.352 0-2.373-.736-2.373-2.14 0-1.592 1.32-2.011 2.697-2.151 1.232-.133 1.746-.159 1.746-.641v-.032c0-.673-.425-1.06-1.213-1.06-.806 0-1.288.406-1.453.876l-1.574-.311c.406-1.244 1.568-1.873 3.027-1.873 1.378 0 2.92.584 2.92 2.438V37h-1.631v-.977h-.063c-.318.621-.997 1.123-2.082 1.123Zm.445-1.25c.99 0 1.638-.654 1.638-1.435v-.825c-.229.177-1.111.285-1.53.342-.743.102-1.282.375-1.282 1.003 0 .603.495.914 1.174.914Zm6.766-3.041V37H84.4v-7.097h1.619l.019 1.759h-.121c.387-1.213 1.155-1.848 2.317-1.848 1.46 0 2.431.978 2.431 2.68V37h-1.707v-4.24c0-.933-.515-1.498-1.365-1.498-.864 0-1.486.584-1.486 1.593Zm12.683 4.291c-2.145 0-3.46-1.422-3.46-3.65 0-2.184 1.315-3.682 3.352-3.682 1.758 0 3.263 1.111 3.263 3.587v.52H96.11v-1.136h4.99l-.794.33c0-1.18-.552-1.974-1.612-1.974-1.067 0-1.676.825-1.676 1.866v.787c0 1.327.717 2.025 1.79 2.025.711 0 1.251-.31 1.466-.901l1.562.317c-.343 1.15-1.454 1.911-3.047 1.911Zm3.732-.146 2.755-4.304v1.327l-2.615-4.12h1.866l.705 1.187c.419.73.724 1.429 1.06 2.07h-.686c.35-.641.629-1.346 1.061-2.07l.729-1.187h1.835l-2.653 4.145v-1.3L109.333 37h-1.854l-.857-1.403c-.425-.717-.73-1.403-1.073-2.037h.692c-.336.634-.603 1.32-1.028 2.037L104.356 37h-1.835Zm7.979 2.653v-9.75h1.676v1.181h.102c.247-.514.774-1.27 2.031-1.27 1.619 0 2.907 1.276 2.907 3.657 0 2.336-1.244 3.656-2.913 3.656-1.213 0-1.771-.724-2.025-1.25h-.07v3.776H110.5Zm3.32-3.916c1.079 0 1.651-.965 1.651-2.279 0-1.301-.559-2.247-1.651-2.247-1.06 0-1.644.889-1.644 2.247 0 1.365.591 2.279 1.644 2.279Zm7.973 1.409c-2.146 0-3.46-1.422-3.46-3.65 0-2.184 1.314-3.682 3.352-3.682 1.758 0 3.263 1.111 3.263 3.587v.52h-5.834v-1.136h4.99l-.794.33c0-1.18-.552-1.974-1.612-1.974-1.067 0-1.676.825-1.676 1.866v.787c0 1.327.717 2.025 1.79 2.025.711 0 1.25-.31 1.466-.901l1.562.317c-.343 1.15-1.454 1.911-3.047 1.911Zm4.551-.146v-7.097h1.651v1.2h.076c.26-.832.939-1.295 1.745-1.295.191 0 .445.026.61.05v1.562a3.457 3.457 0 0 0-.787-.089c-.921 0-1.587.629-1.587 1.53V37h-1.708Zm5.32 0v-7.097h1.707V37h-1.707Zm.857-8.08c-.54 0-.978-.413-.978-.921s.438-.92.978-.92c.539 0 .977.412.977.92s-.438.92-.977.92Zm2.57 8.08v-7.097h1.6l.07 1.72h-.127c.304-1.269 1.187-1.828 2.126-1.828 1.022 0 1.644.654 1.917 1.917h-.203c.298-1.282 1.276-1.917 2.38-1.917 1.276 0 2.254.851 2.254 2.419V37H143.4v-4.507c0-.857-.533-1.25-1.206-1.25-.787 0-1.263.54-1.263 1.326V37h-1.663v-4.577c0-.717-.489-1.18-1.174-1.18-.718 0-1.295.501-1.295 1.422V37h-1.708Zm14.898.146c-2.145 0-3.459-1.422-3.459-3.65 0-2.184 1.314-3.682 3.351-3.682 1.759 0 3.263 1.111 3.263 3.587v.52h-5.833v-1.136h4.989l-.794.33c0-1.18-.552-1.974-1.612-1.974-1.066 0-1.676.825-1.676 1.866v.787c0 1.327.718 2.025 1.79 2.025.711 0 1.251-.31 1.467-.901l1.561.317c-.343 1.15-1.453 1.911-3.047 1.911Zm6.259-4.291V37h-1.707v-7.097h1.618l.019 1.759h-.12c.387-1.213 1.155-1.848 2.317-1.848 1.459 0 2.431.978 2.431 2.68V37h-1.708v-4.24c0-.933-.514-1.498-1.365-1.498-.863 0-1.485.584-1.485 1.593Zm9.629-2.952v1.333h-4.068v-1.333h4.068Zm-3.072-1.688h1.708v6.773c0 .501.196.723.692.723.152 0 .45-.038.603-.076l.26 1.308a3.953 3.953 0 0 1-1.13.159c-1.371 0-2.133-.705-2.133-1.968v-6.92Zm5.973 5.897v-.134c0-1.644.464-2.056 1.264-2.551.571-.356 1.009-.787 1.009-1.435 0-.717-.559-1.174-1.257-1.174-.654 0-1.27.412-1.308 1.257h-1.669c.038-1.771 1.365-2.66 2.983-2.66 1.771 0 3.003.978 3.003 2.54 0 1.066-.533 1.751-1.384 2.265-.762.457-1.086.794-1.086 1.758v.134h-1.555Zm.787 3.002c-.615 0-1.06-.425-1.06-1.015 0-.597.445-1.022 1.06-1.022.61 0 1.054.425 1.054 1.022 0 .59-.444 1.015-1.054 1.015Z"/>
    <g clip-path="url(#b)" style="mix-blend-mode:multiply">
      <path fill="#737278" fill-rule="evenodd" d="M276.28 27.22a.75.75 0 1 0-1.06 1.06l3.719 3.72-3.719 3.72a.75.75 0 1 0 1.06 1.06l3.72-3.72 3.72 3.72a.75.75 0 1 0 1.06-1.06L281.061 32l3.719-3.72a.75.75 0 1 0-1.06-1.06L280 30.94l-3.72-3.72Z" clip-rule="evenodd"/>
    </g>
    <path fill="#333238" d="m28.305 60 3.17-8.73h1.289l3.21 8.73h-1.171l-1.852-5.18c-.228-.638-.516-1.547-.943-3.029h.21a53.311 53.311 0 0 1-.93 3.03L29.487 60h-1.183Zm1.593-2.438v-.972h4.483v.972h-4.483Zm8.368-1.488V60H37.21v-6.55h1.014l.005 1.587h-.146c.398-1.207 1.16-1.67 2.15-1.67 1.325 0 2.221.815 2.221 2.473V60h-1.06v-4.072c0-1.008-.563-1.612-1.477-1.612-.943 0-1.652.64-1.652 1.758Zm12.175 4.067c-1.898 0-3.07-1.348-3.07-3.364 0-2.01 1.16-3.41 2.947-3.41 1.389 0 2.854.856 2.854 3.276v.439h-5.086v-.89h4.517l-.492.328c0-1.29-.609-2.215-1.793-2.215-1.183 0-1.88.978-1.88 2.045v.591c0 1.46.808 2.262 2.01 2.262.773 0 1.353-.34 1.599-1.008l1.02.282c-.305.99-1.284 1.664-2.626 1.664ZM53.87 60l2.584-3.768-.006.809-2.443-3.592h1.23l.815 1.272c.422.656.697 1.219 1.025 1.746h-.55c.333-.527.562-1.09.99-1.746l.832-1.272h1.207l-2.455 3.639v-.78L59.658 60h-1.224l-.961-1.47c-.416-.64-.68-1.178-1.002-1.688h.556c-.322.51-.545 1.049-.967 1.687L55.088 60h-1.219Zm7.096 2.45v-9h1.02v1.048h.117c.216-.346.62-1.13 1.898-1.13 1.635 0 2.777 1.3 2.777 3.374 0 2.086-1.136 3.399-2.771 3.399-1.248 0-1.688-.791-1.904-1.155h-.082v3.463h-1.055Zm2.883-3.253c1.224 0 1.857-1.09 1.857-2.467 0-1.359-.615-2.42-1.857-2.42-1.207 0-1.84.973-1.84 2.42 0 1.46.65 2.467 1.84 2.467Zm7.218.944c-1.898 0-3.07-1.348-3.07-3.364 0-2.01 1.16-3.41 2.947-3.41 1.389 0 2.854.856 2.854 3.276v.439H68.71v-.89h4.517l-.492.328c0-1.29-.609-2.215-1.793-2.215-1.183 0-1.88.978-1.88 2.045v.591c0 1.46.808 2.262 2.01 2.262.773 0 1.353-.34 1.599-1.008l1.02.282c-.305.99-1.284 1.664-2.626 1.664ZM75.31 60v-6.55h1.02v1.007h.07c.24-.662.92-1.102 1.699-1.102.152 0 .41.012.533.018v1.06a3.99 3.99 0 0 0-.633-.058c-.943 0-1.635.639-1.635 1.523V60H75.31Zm4.71 0v-6.55h1.055V60H80.02Zm.534-7.623c-.399 0-.733-.31-.733-.697 0-.387.334-.698.733-.698.404 0 .738.311.738.698 0 .386-.334.697-.738.697ZM82.926 60v-6.55h1.025l.006 1.464h-.082c.264-1.06 1.066-1.582 1.916-1.582.95 0 1.553.645 1.728 1.594h-.14c.234-.979 1.102-1.594 2.144-1.594 1.137 0 2.063.733 2.063 2.25V60h-1.06v-4.389c0-.943-.616-1.318-1.319-1.318-.885 0-1.424.604-1.424 1.43V60h-1.055v-4.494c0-.727-.544-1.213-1.283-1.213-.767 0-1.464.539-1.464 1.582V60h-1.055Zm13.265.14c-1.898 0-3.07-1.347-3.07-3.363 0-2.01 1.16-3.41 2.947-3.41 1.389 0 2.854.856 2.854 3.276v.439h-5.086v-.89h4.517l-.492.328c0-1.29-.609-2.215-1.793-2.215-1.183 0-1.88.978-1.88 2.045v.591c0 1.46.808 2.262 2.01 2.262.773 0 1.353-.34 1.599-1.008l1.02.282c-.305.99-1.284 1.664-2.626 1.664Zm5.297-4.066V60h-1.054v-6.55h1.013l.006 1.587h-.146c.398-1.207 1.16-1.67 2.15-1.67 1.324 0 2.221.815 2.221 2.473V60h-1.061v-4.072c0-1.008-.562-1.612-1.476-1.612-.944 0-1.653.64-1.653 1.758Zm8.625-2.625v.903h-3.386v-.903h3.386Zm-2.402-1.558h1.055v6.41c0 .586.216.843.773.843.135 0 .363-.035.539-.07l.217.89a2.54 2.54 0 0 1-.785.118c-1.131 0-1.799-.627-1.799-1.7v-6.491ZM114.836 60v-6.55h1.055V60h-1.055Zm.533-7.623c-.398 0-.732-.31-.732-.697 0-.387.334-.698.732-.698.404 0 .738.311.738.698 0 .386-.334.697-.738.697Zm4.6 7.764c-1.348 0-2.285-.598-2.52-1.729l1.002-.24c.188.72.721 1.043 1.506 1.043.914 0 1.5-.451 1.5-.99 0-.452-.316-.75-.961-.903l-1.09-.258c-1.189-.28-1.758-.867-1.758-1.787 0-1.125 1.032-1.91 2.426-1.91 1.348 0 2.057.656 2.356 1.576l-.955.247c-.182-.47-.551-.926-1.395-.926-.779 0-1.365.404-1.365.949 0 .486.334.756 1.101.937l.991.235c1.189.281 1.746.873 1.746 1.77 0 1.148-1.049 1.986-2.584 1.986Zm8.543-4.067V60h-1.055v-6.55h1.014l.006 1.587h-.147c.399-1.207 1.16-1.67 2.15-1.67 1.325 0 2.221.815 2.221 2.473V60h-1.06v-4.072c0-1.008-.563-1.612-1.477-1.612-.943 0-1.652.64-1.652 1.758Zm8.713 4.067c-1.782 0-2.983-1.354-2.983-3.375 0-2.051 1.201-3.399 2.983-3.399 1.787 0 2.994 1.348 2.994 3.399 0 2.021-1.207 3.375-2.994 3.375Zm0-.944c1.324 0 1.927-1.142 1.927-2.431 0-1.301-.603-2.456-1.927-2.456-1.307 0-1.911 1.149-1.911 2.456 0 1.289.604 2.431 1.911 2.431Zm7.107-5.748v.903h-3.387v-.903h3.387Zm-2.402-1.558h1.054v6.41c0 .586.217.843.774.843.135 0 .363-.035.539-.07l.217.89a2.54 2.54 0 0 1-.785.118c-1.131 0-1.799-.627-1.799-1.7v-6.491Zm7.019 10.482.27-.914.111.03c.645.17 1.108.029 1.43-.909l.187-.545-2.502-6.586h1.155l1.394 3.885c.293.814.469 1.617.697 2.367h-.386c.222-.75.404-1.558.697-2.367l1.406-3.885h1.149l-2.877 7.53c-.399 1.043-1.032 1.517-1.957 1.517-.375 0-.662-.07-.774-.123Zm9.375-2.232c-1.898 0-3.07-1.348-3.07-3.364 0-2.01 1.16-3.41 2.947-3.41 1.389 0 2.854.856 2.854 3.276v.439h-5.086v-.89h4.517l-.492.328c0-1.29-.609-2.215-1.793-2.215-1.183 0-1.881.978-1.881 2.045v.591c0 1.46.809 2.262 2.01 2.262.774 0 1.354-.34 1.6-1.008l1.019.282c-.304.99-1.283 1.664-2.625 1.664Zm6.821-6.692v.903h-3.387v-.903h3.387Zm-2.403-1.558h1.055v6.41c0 .586.217.843.773.843.135 0 .364-.035.539-.07l.217.89a2.536 2.536 0 0 1-.785.118c-1.131 0-1.799-.627-1.799-1.7v-6.491Zm7.125 10.558v-9h1.02v1.049h.117c.217-.346.621-1.13 1.898-1.13 1.635 0 2.778 1.3 2.778 3.374 0 2.086-1.137 3.399-2.772 3.399-1.248 0-1.687-.791-1.904-1.155h-.082v3.463h-1.055Zm2.883-3.252c1.225 0 1.857-1.09 1.857-2.467 0-1.359-.615-2.42-1.857-2.42-1.207 0-1.84.973-1.84 2.42 0 1.46.651 2.467 1.84 2.467Zm4.465.803v-6.55h1.019v1.007h.071c.24-.662.92-1.102 1.699-1.102.152 0 .41.012.533.018v1.06a3.975 3.975 0 0 0-.633-.058c-.943 0-1.634.639-1.634 1.523V60h-1.055Zm6.99.14c-1.781 0-2.982-1.353-2.982-3.374 0-2.051 1.201-3.399 2.982-3.399 1.787 0 2.994 1.348 2.994 3.399 0 2.021-1.207 3.375-2.994 3.375Zm0-.943c1.324 0 1.928-1.142 1.928-2.431 0-1.301-.604-2.456-1.928-2.456-1.307 0-1.91 1.149-1.91 2.456 0 1.289.603 2.431 1.91 2.431Zm6.984.944c-1.634 0-2.771-1.313-2.771-3.399 0-2.074 1.143-3.375 2.777-3.375 1.278 0 1.682.785 1.899 1.131h.082V51.27h1.054V60h-1.019v-1.014h-.117c-.217.364-.656 1.155-1.905 1.155Zm.159-.944c1.189 0 1.84-1.008 1.84-2.467 0-1.447-.633-2.42-1.84-2.42-1.243 0-1.858 1.061-1.858 2.42 0 1.377.633 2.467 1.858 2.467Zm6.955.885c-1.324 0-2.221-.814-2.221-2.473v-4.16h1.055v4.073c0 1.007.568 1.61 1.482 1.61.938 0 1.647-.638 1.647-1.757v-3.926h1.06V60h-1.019v-1.588h.14c-.404 1.23-1.183 1.67-2.144 1.67Zm7.547.059c-1.782 0-2.983-1.354-2.983-3.375 0-2.051 1.201-3.399 2.983-3.399 1.265 0 2.296.668 2.654 1.81l-1.014.288c-.193-.674-.779-1.155-1.64-1.155-1.307 0-1.911 1.149-1.911 2.456 0 1.289.604 2.431 1.911 2.431.879 0 1.476-.498 1.67-1.207l1.007.287c-.351 1.166-1.394 1.864-2.677 1.864Zm6.767-6.692v.903h-3.387v-.903h3.387Zm-2.402-1.558h1.055v6.41c0 .586.216.843.773.843.135 0 .363-.035.539-.07l.217.89a2.54 2.54 0 0 1-.785.118c-1.131 0-1.799-.627-1.799-1.7v-6.491Zm3.75 8.109v-6.55h1.055V60h-1.055Zm.533-7.623c-.398 0-.732-.31-.732-.697 0-.387.334-.698.732-.698.404 0 .738.311.738.698 0 .386-.334.697-.738.697Zm5.039 7.764c-1.781 0-2.982-1.354-2.982-3.375 0-2.051 1.201-3.399 2.982-3.399 1.787 0 2.994 1.348 2.994 3.399 0 2.021-1.207 3.375-2.994 3.375Zm0-.944c1.324 0 1.928-1.142 1.928-2.431 0-1.301-.604-2.456-1.928-2.456-1.307 0-1.91 1.149-1.91 2.456 0 1.289.603 2.431 1.91 2.431Zm5.584-3.123V60h-1.055v-6.55h1.014l.006 1.587h-.147c.399-1.207 1.161-1.67 2.151-1.67 1.324 0 2.221.815 2.221 2.473V60h-1.061v-4.072c0-1.008-.562-1.612-1.477-1.612-.943 0-1.652.64-1.652 1.758Zm9.797-.287v.973h-3.832v-.973h3.832Zm1.77 4.213v-6.55h1.019v1.007h.07c.241-.662.92-1.102 1.7-1.102.152 0 .41.012.533.018v1.06a4.003 4.003 0 0 0-.633-.058c-.943 0-1.635.639-1.635 1.523V60h-1.054Zm7.078.14c-1.899 0-3.071-1.347-3.071-3.363 0-2.01 1.16-3.41 2.948-3.41 1.388 0 2.853.856 2.853 3.276v.439h-5.086v-.89h4.518l-.492.328c0-1.29-.61-2.215-1.793-2.215-1.184 0-1.881.978-1.881 2.045v.591c0 1.46.808 2.262 2.009 2.262.774 0 1.354-.34 1.6-1.008l1.02.282c-.305.99-1.284 1.664-2.625 1.664Zm6.193.012c-1.242 0-2.232-.726-2.232-2.015 0-1.5 1.335-1.776 2.548-1.928 1.166-.147 1.682-.111 1.682-.598v-.035c0-.814-.463-1.283-1.371-1.283-.943 0-1.453.504-1.658.96l-1.014-.333c.504-1.19 1.629-1.553 2.643-1.553.879 0 2.455.27 2.455 2.315V60h-1.037v-.89h-.071c-.222.462-.838 1.042-1.945 1.042Zm.182-.931c1.166 0 1.816-.785 1.816-1.588v-.908c-.176.205-1.324.322-1.728.375-.768.1-1.442.345-1.442 1.09 0 .68.568 1.03 1.354 1.03Zm7.177.92c-1.634 0-2.771-1.313-2.771-3.399 0-2.074 1.142-3.375 2.777-3.375 1.278 0 1.682.785 1.899 1.131h.082V51.27h1.054V60h-1.019v-1.014h-.117c-.217.364-.657 1.155-1.905 1.155Zm.159-.944c1.189 0 1.839-1.008 1.839-2.467 0-1.447-.632-2.42-1.839-2.42-1.243 0-1.858 1.061-1.858 2.42 0 1.377.633 2.467 1.858 2.467Zm4.687 3.176.27-.914.111.03c.644.17 1.107.029 1.43-.909l.187-.545-2.502-6.586h1.154l1.395 3.885c.293.814.469 1.617.697 2.367h-.386c.222-.75.404-1.558.697-2.367l1.406-3.885h1.148l-2.876 7.53c-.399 1.043-1.032 1.517-1.957 1.517-.376 0-.663-.07-.774-.123Zm6.152-.27.516-3.322h1.207l-.914 3.322h-.809ZM31.966 76.141c-1.247 0-1.687-.791-1.904-1.155h-.117V76h-1.02v-8.73h1.055v3.228h.082c.217-.346.622-1.13 1.899-1.13 1.635 0 2.777 1.3 2.777 3.374 0 2.086-1.136 3.399-2.771 3.399Zm-.157-.944c1.224 0 1.857-1.09 1.857-2.466 0-1.36-.615-2.42-1.857-2.42-1.207 0-1.84.972-1.84 2.42 0 1.459.65 2.466 1.84 2.466Zm6.685.885c-1.324 0-2.22-.814-2.22-2.473v-4.16h1.054v4.073c0 1.007.569 1.61 1.482 1.61.938 0 1.647-.638 1.647-1.757v-3.926h1.06V76h-1.019v-1.588h.14c-.404 1.23-1.183 1.67-2.144 1.67Zm7.46-6.633v.903h-3.388v-.903h3.387Zm-2.403-1.558h1.054v6.41c0 .586.217.843.774.843.135 0 .363-.035.539-.07l.217.89a2.539 2.539 0 0 1-.785.118c-1.131 0-1.8-.627-1.8-1.7v-6.491ZM50.676 76v-6.55h1.054V76h-1.054Zm.533-7.623c-.399 0-.732-.31-.732-.697 0-.387.334-.698.732-.698.404 0 .738.311.738.698 0 .386-.334.697-.738.697Zm4.6 7.764c-1.348 0-2.286-.598-2.52-1.729l1.002-.24c.188.72.72 1.043 1.506 1.043.914 0 1.5-.451 1.5-.99 0-.452-.316-.75-.961-.903l-1.09-.258c-1.19-.28-1.758-.867-1.758-1.787 0-1.125 1.032-1.91 2.426-1.91 1.348 0 2.057.656 2.355 1.576l-.954.246c-.182-.468-.551-.925-1.395-.925-.78 0-1.365.404-1.365.949 0 .486.334.756 1.101.937l.99.235c1.19.281 1.747.873 1.747 1.77 0 1.148-1.05 1.986-2.584 1.986ZM63.297 76v-6.55h1.02v1.007h.07c.24-.662.92-1.101 1.699-1.101.152 0 .41.011.533.017v1.06a3.987 3.987 0 0 0-.633-.058c-.943 0-1.634.639-1.634 1.523V76h-1.055Zm7.078.14c-1.898 0-3.07-1.347-3.07-3.363 0-2.01 1.16-3.41 2.947-3.41 1.389 0 2.854.856 2.854 3.276v.439h-5.087v-.89h4.518l-.492.328c0-1.29-.61-2.215-1.793-2.215-1.184 0-1.88.978-1.88 2.045v.591c0 1.46.808 2.262 2.009 2.262.773 0 1.353-.34 1.6-1.008l1.019.282c-.305.99-1.283 1.664-2.625 1.664Zm5.713-.093c-.984 0-1.47-.55-1.47-1.5v-7.278h1.054v7.014c0 .604.105.82.545.82.228 0 .322-.017.422-.046l.21.89c-.187.053-.48.1-.761.1Zm4.412.094c-1.898 0-3.07-1.348-3.07-3.364 0-2.01 1.16-3.41 2.947-3.41 1.389 0 2.854.856 2.854 3.276v.439h-5.087v-.89h4.518l-.492.328c0-1.29-.61-2.215-1.793-2.215-1.184 0-1.88.978-1.88 2.045v.591c0 1.46.808 2.262 2.009 2.262.773 0 1.353-.34 1.6-1.008l1.019.282c-.305.99-1.283 1.664-2.625 1.664Zm6.193.011c-1.242 0-2.232-.726-2.232-2.015 0-1.5 1.336-1.776 2.549-1.928 1.166-.147 1.681-.111 1.681-.598v-.035c0-.814-.463-1.283-1.37-1.283-.944 0-1.454.504-1.659.96l-1.014-.333c.504-1.19 1.63-1.553 2.643-1.553.879 0 2.455.27 2.455 2.315V76H88.71v-.89h-.07c-.223.462-.838 1.042-1.946 1.042Zm.182-.931c1.166 0 1.816-.785 1.816-1.588v-.908c-.175.205-1.324.322-1.728.375-.768.1-1.441.345-1.441 1.09 0 .68.568 1.03 1.353 1.03Zm6.95.92c-1.348 0-2.286-.598-2.52-1.729l1.002-.24c.187.72.72 1.043 1.505 1.043.915 0 1.5-.451 1.5-.99 0-.452-.316-.75-.96-.903l-1.09-.258c-1.19-.28-1.758-.867-1.758-1.787 0-1.125 1.031-1.91 2.426-1.91 1.347 0 2.056.656 2.355 1.576l-.955.246c-.182-.468-.55-.925-1.394-.925-.78 0-1.366.404-1.366.949 0 .486.334.756 1.102.937l.99.235c1.19.281 1.746.873 1.746 1.77 0 1.148-1.049 1.986-2.584 1.986Zm6.866 0c-1.898 0-3.07-1.348-3.07-3.364 0-2.01 1.16-3.41 2.947-3.41 1.389 0 2.854.856 2.854 3.276v.439h-5.086v-.89h4.518l-.493.328c0-1.29-.609-2.215-1.793-2.215-1.183 0-1.88.978-1.88 2.045v.591c0 1.46.808 2.262 2.009 2.262.774 0 1.354-.34 1.6-1.008l1.019.282c-.304.99-1.283 1.664-2.625 1.664Zm6.698 0c-1.635 0-2.772-1.313-2.772-3.399 0-2.074 1.143-3.375 2.778-3.375 1.277 0 1.681.785 1.898 1.131h.082v-3.229h1.055V76h-1.02v-1.014h-.117c-.217.364-.656 1.155-1.904 1.155Zm.158-.944c1.189 0 1.84-1.008 1.84-2.466 0-1.448-.633-2.42-1.84-2.42-1.242 0-1.858 1.06-1.858 2.42 0 1.376.633 2.466 1.858 2.466Zm11.156-5.748v.903h-3.855v-.903h3.855ZM116.137 76v-7.424c0-1.136.908-1.717 1.863-1.717.498 0 .826.106.984.176l-.293.903c-.111-.036-.275-.1-.568-.1-.65 0-.932.34-.932.973V76h-1.054Zm6.509.14c-1.781 0-2.982-1.353-2.982-3.374 0-2.051 1.201-3.399 2.982-3.399 1.788 0 2.995 1.348 2.995 3.399 0 2.021-1.207 3.375-2.995 3.375Zm0-.943c1.325 0 1.928-1.142 1.928-2.431 0-1.301-.603-2.456-1.928-2.456-1.306 0-1.91 1.149-1.91 2.456 0 1.289.604 2.431 1.91 2.431Zm4.53.803v-6.55h1.019v1.007h.071c.24-.662.92-1.101 1.699-1.101.152 0 .41.011.533.017v1.06a3.989 3.989 0 0 0-.633-.058c-.943 0-1.635.639-1.635 1.523V76h-1.054Zm7.898 0v-6.55h1.055V76h-1.055Zm.533-7.623c-.398 0-.732-.31-.732-.697 0-.387.334-.698.732-.698.405 0 .739.311.739.698 0 .386-.334.697-.739.697Zm3.428 3.697V76h-1.055v-6.55h1.014l.006 1.587h-.146c.398-1.207 1.16-1.67 2.15-1.67 1.324 0 2.221.815 2.221 2.473V76h-1.061v-4.072c0-1.008-.562-1.612-1.476-1.612-.944 0-1.653.64-1.653 1.758ZM145.082 76v-6.55h1.055V76h-1.055Zm.533-7.623c-.398 0-.732-.31-.732-.697 0-.387.334-.698.732-.698.405 0 .739.311.739.698 0 .386-.334.697-.739.697Zm4.951 1.072v.903h-3.386v-.903h3.386Zm-2.402-1.558h1.055v6.41c0 .586.217.843.773.843.135 0 .363-.035.539-.07l.217.89a2.54 2.54 0 0 1-.785.118c-1.131 0-1.799-.627-1.799-1.7v-6.491Zm3.75 8.109v-6.55h1.055V76h-1.055Zm.533-7.623c-.398 0-.732-.31-.732-.697 0-.387.334-.698.732-.698.405 0 .739.311.739.698 0 .386-.334.697-.739.697Zm4.207 7.775c-1.242 0-2.232-.726-2.232-2.015 0-1.5 1.336-1.776 2.549-1.928 1.166-.147 1.681-.111 1.681-.598v-.035c0-.814-.463-1.283-1.371-1.283-.943 0-1.453.504-1.658.96l-1.014-.333c.504-1.19 1.629-1.553 2.643-1.553.879 0 2.455.27 2.455 2.315V76h-1.037v-.89h-.07c-.223.462-.838 1.042-1.946 1.042Zm.182-.931c1.166 0 1.816-.785 1.816-1.588v-.908c-.175.205-1.324.322-1.728.375-.768.1-1.442.345-1.442 1.09 0 .68.569 1.03 1.354 1.03Zm6.193.826c-.984 0-1.47-.55-1.47-1.5v-7.278h1.054v7.014c0 .604.106.82.545.82.229 0 .322-.017.422-.046l.211.89c-.187.053-.48.1-.762.1Zm7.787-6.598v.903h-3.386v-.903h3.386Zm-2.402-1.558h1.055v6.41c0 .586.217.843.773.843.135 0 .363-.035.539-.07l.217.89a2.54 2.54 0 0 1-.785.118c-1.131 0-1.799-.627-1.799-1.7v-6.491Zm6.387 8.25c-1.899 0-3.071-1.348-3.071-3.364 0-2.01 1.161-3.41 2.948-3.41 1.388 0 2.853.856 2.853 3.276v.439h-5.086v-.89h4.518l-.492.328c0-1.29-.61-2.215-1.793-2.215-1.184 0-1.881.978-1.881 2.045v.591c0 1.46.808 2.262 2.01 2.262.773 0 1.353-.34 1.599-1.008l1.02.282c-.305.99-1.283 1.664-2.625 1.664Zm6.469 0c-1.348 0-2.286-.598-2.52-1.729l1.002-.24c.187.72.721 1.043 1.506 1.043.914 0 1.5-.451 1.5-.99 0-.452-.317-.75-.961-.903l-1.09-.258c-1.189-.28-1.758-.867-1.758-1.787 0-1.125 1.031-1.91 2.426-1.91 1.348 0 2.057.656 2.355 1.576l-.955.246c-.181-.468-.55-.925-1.394-.925-.779 0-1.365.404-1.365.949 0 .486.334.756 1.101.937l.99.235c1.19.281 1.747.873 1.747 1.77 0 1.148-1.049 1.986-2.584 1.986Zm6.691-6.692v.903h-3.387v-.903h3.387Zm-2.402-1.558h1.054v6.41c0 .586.217.843.774.843.134 0 .363-.035.539-.07l.217.89a2.543 2.543 0 0 1-.786.118c-1.13 0-1.798-.627-1.798-1.7v-6.491Zm3.75 8.109v-6.55h1.054V76h-1.054Zm.533-7.623c-.399 0-.733-.31-.733-.697 0-.387.334-.698.733-.698.404 0 .738.311.738.698 0 .386-.334.697-.738.697Zm3.428 3.697V76h-1.055v-6.55h1.014l.005 1.587h-.146c.398-1.207 1.16-1.67 2.15-1.67 1.324 0 2.221.815 2.221 2.473V76h-1.061v-4.072c0-1.008-.562-1.612-1.476-1.612-.943 0-1.652.64-1.652 1.758Zm8.701 6.516c-1.453 0-2.291-.615-2.696-1.336l.856-.55c.275.38.685.966 1.84.966 1.043 0 1.799-.48 1.799-1.559V74.8h-.1c-.223.375-.639 1.095-1.904 1.095-1.571 0-2.766-1.142-2.766-3.199 0-2.027 1.154-3.328 2.789-3.328 1.266 0 1.688.78 1.91 1.131h.1V69.45h1.025v6.72c0 1.694-1.26 2.42-2.853 2.42Zm-.03-3.633c1.19 0 1.84-.855 1.84-2.285 0-1.389-.633-2.361-1.84-2.361-1.248 0-1.869 1.054-1.869 2.36 0 1.348.639 2.286 1.869 2.286Zm9.944 1.195c-1.242 0-2.233-.726-2.233-2.015 0-1.5 1.336-1.776 2.549-1.928 1.166-.147 1.682-.111 1.682-.598v-.035c0-.814-.463-1.283-1.371-1.283-.944 0-1.453.504-1.658.96l-1.014-.333c.504-1.19 1.629-1.553 2.642-1.553.879 0 2.456.27 2.456 2.315V76H213.9v-.89h-.07c-.223.462-.838 1.042-1.945 1.042Zm.181-.931c1.166 0 1.817-.785 1.817-1.588v-.908c-.176.205-1.324.322-1.729.375-.767.1-1.441.345-1.441 1.09 0 .68.568 1.03 1.353 1.03Zm5.778-3.147V76h-1.055v-6.55h1.014l.006 1.587h-.147c.399-1.207 1.16-1.67 2.15-1.67 1.325 0 2.221.815 2.221 2.473V76h-1.06v-4.072c0-1.008-.563-1.612-1.477-1.612-.943 0-1.652.64-1.652 1.758Zm8.502 4.067c-1.635 0-2.772-1.313-2.772-3.399 0-2.074 1.143-3.375 2.778-3.375 1.277 0 1.681.785 1.898 1.131h.082v-3.229h1.055V76h-1.02v-1.014h-.117c-.217.364-.656 1.155-1.904 1.155Zm.158-.944c1.189 0 1.84-1.008 1.84-2.466 0-1.448-.633-2.42-1.84-2.42-1.242 0-1.858 1.06-1.858 2.42 0 1.376.633 2.466 1.858 2.466ZM31.973 85.45v.903h-3.856v-.903h3.856ZM29.406 92v-7.424c0-1.136.909-1.717 1.864-1.717.498 0 .826.106.984.176l-.293.903c-.111-.036-.275-.1-.568-.1-.65 0-.932.34-.932.973V92h-1.055Zm6.598.14c-1.898 0-3.07-1.347-3.07-3.363 0-2.01 1.16-3.41 2.947-3.41 1.389 0 2.853.856 2.853 3.276v.439h-5.086v-.89h4.518l-.492.328c0-1.29-.61-2.215-1.793-2.215-1.184 0-1.881.978-1.881 2.045v.591c0 1.46.809 2.262 2.01 2.262.773 0 1.353-.34 1.6-1.008l1.019.282c-.305.99-1.283 1.664-2.625 1.664Zm6.996 0c-1.898 0-3.07-1.347-3.07-3.363 0-2.01 1.16-3.41 2.947-3.41 1.389 0 2.853.856 2.853 3.276v.439h-5.085v-.89h4.517l-.492.328c0-1.29-.61-2.215-1.793-2.215-1.184 0-1.88.978-1.88 2.045v.591c0 1.46.808 2.262 2.009 2.262.773 0 1.353-.34 1.6-1.008l1.019.282c-.305.99-1.283 1.664-2.625 1.664Zm6.697 0c-1.635 0-2.771-1.312-2.771-3.398 0-2.074 1.142-3.375 2.777-3.375 1.277 0 1.682.785 1.899 1.131h.082v-3.229h1.054V92h-1.02v-1.014h-.116c-.217.364-.657 1.155-1.905 1.155Zm.158-.943c1.19 0 1.84-1.008 1.84-2.466 0-1.448-.633-2.42-1.84-2.42-1.242 0-1.857 1.06-1.857 2.42 0 1.376.633 2.466 1.858 2.466Zm7.776.944c-1.248 0-1.688-.791-1.904-1.155h-.118V92h-1.02v-8.73h1.056v3.228h.082c.216-.346.62-1.13 1.898-1.13 1.635 0 2.777 1.3 2.777 3.374 0 2.086-1.136 3.399-2.771 3.399Zm-.158-.944c1.224 0 1.857-1.09 1.857-2.466 0-1.36-.615-2.42-1.857-2.42-1.207 0-1.84.972-1.84 2.42 0 1.459.65 2.466 1.84 2.466Zm6.416.955c-1.242 0-2.233-.726-2.233-2.015 0-1.5 1.336-1.776 2.55-1.928 1.165-.147 1.68-.111 1.68-.598v-.035c0-.814-.462-1.283-1.37-1.283-.944 0-1.454.504-1.659.96l-1.013-.333c.504-1.19 1.629-1.553 2.642-1.553.88 0 2.455.27 2.455 2.315V92h-1.037v-.89h-.07c-.223.462-.838 1.042-1.945 1.042Zm.181-.931c1.166 0 1.817-.785 1.817-1.588v-.908c-.176.205-1.325.322-1.729.375-.767.1-1.441.345-1.441 1.09 0 .68.568 1.03 1.353 1.03Zm7.389.92c-1.781 0-2.982-1.354-2.982-3.375 0-2.051 1.2-3.399 2.982-3.399 1.266 0 2.297.668 2.654 1.81l-1.013.288c-.194-.674-.78-1.154-1.641-1.154-1.307 0-1.91 1.148-1.91 2.455 0 1.289.603 2.431 1.91 2.431.879 0 1.477-.498 1.67-1.207l1.008.287c-.352 1.166-1.395 1.864-2.678 1.864Zm5.18-2.497v-1.306h.193l2.8-2.889h1.307l-3.029 3.112h-.117l-1.154 1.083ZM75.649 92v-8.73h1.054V92h-1.055Zm4.142 0-2.508-3.205.75-.744L81.144 92h-1.353Zm8.273.14c-1.634 0-2.771-1.312-2.771-3.398 0-2.074 1.142-3.375 2.777-3.375 1.278 0 1.682.785 1.899 1.131h.082v-3.229h1.055V92h-1.02v-1.014h-.117c-.217.364-.656 1.155-1.904 1.155Zm.159-.943c1.19 0 1.84-1.008 1.84-2.466 0-1.448-.633-2.42-1.84-2.42-1.242 0-1.858 1.06-1.858 2.42 0 1.376.633 2.466 1.858 2.466Zm6.955.885c-1.325 0-2.221-.814-2.221-2.473v-4.16h1.055v4.073c0 1.007.568 1.61 1.482 1.61.938 0 1.647-.638 1.647-1.757v-3.926h1.06V92h-1.02v-1.588h.141c-.404 1.23-1.183 1.67-2.144 1.67Zm4.881-.082v-6.55h1.019v1.007h.07c.241-.662.92-1.101 1.7-1.101.152 0 .41.011.533.017v1.06a4.003 4.003 0 0 0-.633-.058c-.943 0-1.635.639-1.635 1.523V92h-1.054Zm4.711 0v-6.55h1.054V92h-1.054Zm.533-7.623c-.399 0-.733-.31-.733-.697 0-.387.334-.698.733-.698.404 0 .738.311.738.698 0 .386-.334.697-.738.697Zm3.427 3.697V92h-1.054v-6.55h1.013l.006 1.587h-.146c.398-1.207 1.16-1.67 2.15-1.67 1.324 0 2.221.815 2.221 2.473V92h-1.061v-4.072c0-1.008-.562-1.612-1.476-1.612-.944 0-1.653.64-1.653 1.758Zm8.702 6.516c-1.453 0-2.291-.615-2.696-1.336l.856-.55c.275.38.685.966 1.84.966 1.043 0 1.798-.48 1.798-1.559V90.8h-.099c-.223.375-.639 1.095-1.904 1.095-1.571 0-2.766-1.142-2.766-3.199 0-2.027 1.154-3.328 2.789-3.328 1.266 0 1.688.78 1.91 1.131h.1V85.45h1.025v6.72c0 1.694-1.26 2.42-2.853 2.42Zm-.03-3.633c1.19 0 1.84-.855 1.84-2.285 0-1.389-.633-2.361-1.84-2.361-1.248 0-1.869 1.054-1.869 2.36 0 1.348.639 2.286 1.869 2.286Zm10.565 1.184c-1.635 0-2.772-1.313-2.772-3.399 0-2.074 1.143-3.375 2.778-3.375 1.277 0 1.681.785 1.898 1.131h.082v-3.229h1.055V92h-1.02v-1.014h-.117c-.217.364-.656 1.155-1.904 1.155Zm.158-.944c1.189 0 1.84-1.008 1.84-2.466 0-1.448-.633-2.42-1.84-2.42-1.242 0-1.857 1.06-1.857 2.42 0 1.376.632 2.466 1.857 2.466Zm7.488.944c-1.898 0-3.07-1.348-3.07-3.364 0-2.01 1.16-3.41 2.947-3.41 1.389 0 2.854.856 2.854 3.276v.439h-5.086v-.89h4.517l-.492.328c0-1.29-.609-2.215-1.793-2.215-1.183 0-1.881.978-1.881 2.045v.591c0 1.46.809 2.262 2.01 2.262.774 0 1.354-.34 1.6-1.008l1.019.282c-.304.99-1.283 1.664-2.625 1.664Zm5.901-.141-2.502-6.55h1.154l1.395 3.884c.293.809.474 1.617.703 2.367h-.387c.228-.75.404-1.558.697-2.367l1.395-3.885h1.154L142.621 92h-1.107Zm7.377.14c-1.899 0-3.071-1.347-3.071-3.363 0-2.01 1.16-3.41 2.948-3.41 1.388 0 2.853.856 2.853 3.276v.439h-5.086v-.89h4.518l-.492.328c0-1.29-.61-2.215-1.793-2.215-1.184 0-1.881.978-1.881 2.045v.591c0 1.46.808 2.262 2.009 2.262.774 0 1.354-.34 1.6-1.008l1.02.282c-.305.99-1.284 1.664-2.625 1.664Zm5.713-.093c-.985 0-1.471-.55-1.471-1.5v-7.278h1.055v7.014c0 .604.105.82.544.82.229 0 .323-.017.422-.046l.211.89c-.187.053-.48.1-.761.1Zm4.324.094c-1.782 0-2.983-1.354-2.983-3.375 0-2.051 1.201-3.399 2.983-3.399 1.787 0 2.994 1.348 2.994 3.399 0 2.021-1.207 3.375-2.994 3.375Zm0-.944c1.324 0 1.927-1.142 1.927-2.431 0-1.301-.603-2.456-1.927-2.456-1.307 0-1.91 1.149-1.91 2.456 0 1.289.603 2.431 1.91 2.431Zm4.529 3.252v-9h1.02v1.049h.117c.217-.346.621-1.13 1.898-1.13 1.635 0 2.778 1.3 2.778 3.374 0 2.086-1.137 3.399-2.772 3.399-1.248 0-1.687-.791-1.904-1.155h-.082v3.463h-1.055Zm2.883-3.252c1.224 0 1.857-1.09 1.857-2.466 0-1.36-.615-2.42-1.857-2.42-1.207 0-1.84.972-1.84 2.42 0 1.459.65 2.466 1.84 2.466Zm4.465.803v-6.55h1.025l.006 1.464h-.082c.264-1.06 1.066-1.582 1.916-1.582.949 0 1.553.645 1.728 1.594h-.14c.234-.979 1.101-1.594 2.144-1.594 1.137 0 2.063.733 2.063 2.25V92h-1.061v-4.389c0-.943-.615-1.318-1.318-1.318-.885 0-1.424.603-1.424 1.43V92h-1.055v-4.494c0-.727-.545-1.213-1.283-1.213-.767 0-1.465.539-1.465 1.582V92h-1.054Zm13.265.14c-1.898 0-3.07-1.347-3.07-3.363 0-2.01 1.16-3.41 2.947-3.41 1.389 0 2.854.856 2.854 3.276v.439h-5.086v-.89h4.517l-.492.328c0-1.29-.609-2.215-1.793-2.215-1.183 0-1.881.978-1.881 2.045v.591c0 1.46.809 2.262 2.01 2.262.774 0 1.354-.34 1.6-1.008l1.019.282c-.304.99-1.283 1.664-2.625 1.664Zm5.297-4.066V92h-1.055v-6.55h1.014l.006 1.587h-.146c.398-1.207 1.16-1.67 2.15-1.67 1.324 0 2.221.815 2.221 2.473V92h-1.061v-4.072c0-1.008-.562-1.612-1.476-1.612-.944 0-1.653.64-1.653 1.758Zm8.625-2.625v.903h-3.387v-.903h3.387Zm-2.402-1.558h1.055v6.41c0 .586.216.843.773.843.135 0 .363-.035.539-.07l.217.89a2.54 2.54 0 0 1-.785.118c-1.131 0-1.799-.627-1.799-1.7v-6.491Zm4.547 8.185a.789.789 0 1 1 .791-.791c0 .44-.358.791-.791.791ZM29.055 124v-8.73h5.32v.984h-4.207v2.848h3.92v.984h-3.92v2.93h4.26V124h-5.373Zm6.545 0 2.584-3.768-.006.809-2.444-3.592h1.23l.815 1.272c.422.656.698 1.218 1.026 1.746h-.551c.334-.528.562-1.09.99-1.746l.832-1.272h1.207l-2.455 3.639v-.779l2.56 3.691h-1.224l-.96-1.471c-.417-.638-.68-1.177-1.003-1.687h.557c-.323.51-.545 1.049-.967 1.687L36.818 124H35.6Zm7.095 2.449v-9h1.02v1.049h.117c.217-.346.621-1.131 1.898-1.131 1.635 0 2.778 1.301 2.778 3.375 0 2.086-1.137 3.399-2.772 3.399-1.248 0-1.687-.791-1.904-1.155h-.082v3.463h-1.055Zm2.883-3.252c1.225 0 1.857-1.09 1.857-2.467 0-1.359-.615-2.419-1.857-2.419-1.207 0-1.84.972-1.84 2.419 0 1.459.65 2.467 1.84 2.467Zm7.219.944c-1.899 0-3.07-1.348-3.07-3.364 0-2.009 1.16-3.41 2.947-3.41 1.389 0 2.853.856 2.853 3.276v.439h-5.086v-.891h4.518l-.492.329c0-1.29-.61-2.215-1.793-2.215-1.184 0-1.881.978-1.881 2.045v.591c0 1.459.809 2.262 2.01 2.262.773 0 1.353-.34 1.6-1.008l1.019.282c-.305.99-1.283 1.664-2.625 1.664Zm4.242-.141v-6.551h1.02v1.008h.07c.24-.662.92-1.102 1.7-1.102.151 0 .41.012.532.018v1.061a3.934 3.934 0 0 0-.633-.059c-.943 0-1.634.639-1.634 1.523V124h-1.055Zm4.711 0v-6.551h1.055V124H61.75Zm.533-7.623c-.398 0-.732-.311-.732-.697 0-.387.334-.698.732-.698.404 0 .739.311.739.698 0 .386-.334.697-.739.697ZM64.656 124v-6.551h1.026l.005 1.465h-.081c.263-1.06 1.066-1.582 1.916-1.582.949 0 1.552.645 1.728 1.594h-.14c.234-.979 1.1-1.594 2.144-1.594 1.137 0 2.062.732 2.062 2.25V124h-1.06v-4.389c0-.943-.615-1.318-1.319-1.318-.884 0-1.423.603-1.423 1.43V124h-1.055v-4.494c0-.727-.545-1.213-1.283-1.213-.768 0-1.465.539-1.465 1.582V124h-1.055Zm13.266.141c-1.899 0-3.07-1.348-3.07-3.364 0-2.009 1.16-3.41 2.947-3.41 1.388 0 2.853.856 2.853 3.276v.439h-5.086v-.891h4.518l-.492.329c0-1.29-.61-2.215-1.793-2.215-1.184 0-1.881.978-1.881 2.045v.591c0 1.459.809 2.262 2.01 2.262.773 0 1.353-.34 1.6-1.008l1.019.282c-.305.99-1.283 1.664-2.625 1.664Zm5.297-4.067V124h-1.055v-6.551h1.014l.006 1.588h-.147c.398-1.207 1.16-1.67 2.15-1.67 1.325 0 2.221.815 2.221 2.473V124h-1.06v-4.072c0-1.008-.563-1.612-1.477-1.612-.943 0-1.652.639-1.652 1.758Zm8.625-2.625v.903h-3.387v-.903h3.387Zm-2.403-1.558h1.055v6.41c0 .586.217.844.773.844.135 0 .364-.036.54-.071l.216.891a2.544 2.544 0 0 1-.785.117c-1.13 0-1.799-.627-1.799-1.699v-6.492Zm5.86 8.25c-1.348 0-2.285-.598-2.52-1.729l1.002-.24c.188.721.72 1.043 1.506 1.043.914 0 1.5-.451 1.5-.99 0-.452-.316-.75-.96-.903l-1.09-.258c-1.19-.281-1.758-.867-1.758-1.787 0-1.125 1.03-1.91 2.425-1.91 1.348 0 2.057.656 2.356 1.576l-.955.246c-.182-.468-.551-.925-1.395-.925-.78 0-1.365.404-1.365.949 0 .486.334.756 1.101.937l.99.235c1.19.281 1.747.873 1.747 1.769 0 1.149-1.05 1.987-2.584 1.987Zm4.91-.065a.79.79 0 1 1 .791-.791.79.79 0 0 1-.791.791Zm0-4.74a.789.789 0 1 1 .791-.791.791.791 0 0 1-.791.791ZM37 138.395a1.873 1.873 0 0 1-1.875-1.875c0-1.038.838-1.875 1.875-1.875s1.875.837 1.875 1.875A1.873 1.873 0 0 1 37 138.395ZM47.055 140v-8.73h1.582l2.15 5.507c.2.51.557 1.653.762 2.414h-.246c.21-.714.568-1.88.773-2.414l2.121-5.507h1.588V140H54.69v-4.986c0-.721.023-1.899.046-2.877h.094a50.157 50.157 0 0 1-.978 2.877L51.9 140h-.966l-1.98-4.986c-.218-.545-.61-1.741-.997-2.877h.105c.024.873.053 2.109.053 2.877V140h-1.06Zm10.71 0v-6.551h1.055V140h-1.054Zm.534-7.623c-.399 0-.733-.311-.733-.697 0-.387.334-.698.733-.698.404 0 .738.311.738.698 0 .386-.334.697-.738.697Zm5.027 10.213c-1.453 0-2.29-.615-2.695-1.336l.855-.551c.276.381.686.967 1.84.967 1.043 0 1.799-.481 1.799-1.559v-1.312h-.1c-.222.375-.638 1.096-1.904 1.096-1.57 0-2.766-1.143-2.766-3.2 0-2.027 1.155-3.328 2.79-3.328 1.265 0 1.687.779 1.91 1.131h.1v-1.049h1.025v6.721c0 1.693-1.26 2.42-2.854 2.42Zm-.03-3.633c1.19 0 1.84-.855 1.84-2.285 0-1.389-.632-2.361-1.84-2.361-1.247 0-1.868 1.054-1.868 2.361 0 1.348.638 2.285 1.869 2.285Zm5.79-2.883V140H68.03v-8.73h1.055v3.767h-.182c.399-1.207 1.16-1.67 2.15-1.67 1.325 0 2.221.815 2.221 2.473V140h-1.06v-4.072c0-1.008-.563-1.612-1.477-1.612-.943 0-1.652.639-1.652 1.758Zm8.625-2.625v.903h-3.387v-.903h3.387Zm-2.402-1.558h1.054v6.41c0 .586.217.844.774.844.135 0 .363-.036.539-.071l.217.891a2.544 2.544 0 0 1-.786.117c-1.13 0-1.798-.627-1.798-1.699v-6.492Zm10.166 8.25c-1.248 0-1.688-.791-1.905-1.155h-.117V140h-1.02v-8.73h1.055v3.228h.082c.217-.346.621-1.131 1.899-1.131 1.635 0 2.777 1.301 2.777 3.375 0 2.086-1.137 3.399-2.771 3.399Zm-.159-.944c1.225 0 1.858-1.09 1.858-2.467 0-1.359-.615-2.419-1.858-2.419-1.207 0-1.84.972-1.84 2.419 0 1.459.651 2.467 1.84 2.467Zm7.22.944c-1.9 0-3.071-1.348-3.071-3.364 0-2.009 1.16-3.41 2.947-3.41 1.389 0 2.854.856 2.854 3.276v.439H90.18v-.891h4.517l-.492.329c0-1.29-.61-2.215-1.793-2.215-1.184 0-1.88.978-1.88 2.045v.591c0 1.459.808 2.262 2.009 2.262.773 0 1.353-.34 1.6-1.008l1.02.282c-.305.99-1.284 1.664-2.626 1.664Zm9.837-.059c-1.324 0-2.221-.814-2.221-2.473v-4.16h1.055v4.072c0 1.008.568 1.612 1.482 1.612.938 0 1.647-.639 1.647-1.758v-3.926h1.06V140h-1.019v-1.588h.141c-.405 1.231-1.184 1.67-2.145 1.67Zm5.936-4.008V140h-1.055v-6.551h1.014l.005 1.588h-.146c.398-1.207 1.16-1.67 2.15-1.67 1.325 0 2.221.815 2.221 2.473V140h-1.06v-4.072c0-1.008-.563-1.612-1.477-1.612-.943 0-1.652.639-1.652 1.758Zm8.273 4.067c-1.348 0-2.285-.598-2.52-1.729l1.002-.24c.188.721.721 1.043 1.506 1.043.914 0 1.5-.451 1.5-.99 0-.452-.316-.75-.961-.903l-1.089-.258c-1.19-.281-1.758-.867-1.758-1.787 0-1.125 1.031-1.91 2.426-1.91 1.347 0 2.056.656 2.355 1.576l-.955.246c-.182-.468-.551-.925-1.395-.925-.779 0-1.365.404-1.365.949 0 .486.334.756 1.102.937l.99.235c1.189.281 1.746.873 1.746 1.769 0 1.149-1.049 1.987-2.584 1.987Zm6.691-6.692v.903h-3.386v-.903h3.386Zm-2.402-1.558h1.055v6.41c0 .586.217.844.773.844.135 0 .363-.036.539-.071l.217.891a2.547 2.547 0 0 1-.785.117c-1.131 0-1.799-.627-1.799-1.699v-6.492Zm5.643 8.261c-1.243 0-2.233-.726-2.233-2.015 0-1.5 1.336-1.776 2.549-1.928 1.166-.147 1.682-.111 1.682-.598v-.035c0-.814-.463-1.283-1.371-1.283-.944 0-1.453.504-1.659.961l-1.013-.334c.504-1.19 1.629-1.553 2.642-1.553.879 0 2.455.27 2.455 2.315V140h-1.037v-.891h-.07c-.223.463-.838 1.043-1.945 1.043Zm.181-.931c1.166 0 1.817-.785 1.817-1.588v-.908c-.176.205-1.324.322-1.729.375-.767.099-1.441.345-1.441 1.089 0 .68.568 1.032 1.353 1.032Zm7.764.92c-1.248 0-1.688-.791-1.904-1.155h-.117V140h-1.02v-8.73h1.055v3.228h.082c.216-.346.621-1.131 1.898-1.131 1.635 0 2.777 1.301 2.777 3.375 0 2.086-1.136 3.399-2.771 3.399Zm-.158-.944c1.224 0 1.857-1.09 1.857-2.467 0-1.359-.615-2.419-1.857-2.419-1.207 0-1.84.972-1.84 2.419 0 1.459.65 2.467 1.84 2.467Zm5.935.85c-.984 0-1.47-.551-1.47-1.5v-7.277h1.054v7.013c0 .604.106.821.545.821.229 0 .323-.018.422-.047l.211.89c-.187.053-.48.1-.762.1Zm4.412.094c-1.898 0-3.07-1.348-3.07-3.364 0-2.009 1.16-3.41 2.947-3.41 1.389 0 2.854.856 2.854 3.276v.439h-5.086v-.891h4.518l-.493.329c0-1.29-.609-2.215-1.793-2.215-1.183 0-1.88.978-1.88 2.045v.591c0 1.459.808 2.262 2.009 2.262.774 0 1.354-.34 1.6-1.008l1.019.282c-.304.99-1.283 1.664-2.625 1.664Zm10.284 0c-1.782 0-2.983-1.354-2.983-3.375 0-2.051 1.201-3.399 2.983-3.399 1.787 0 2.994 1.348 2.994 3.399 0 2.021-1.207 3.375-2.994 3.375Zm0-.944c1.324 0 1.927-1.142 1.927-2.431 0-1.301-.603-2.455-1.927-2.455-1.307 0-1.911 1.148-1.911 2.455 0 1.289.604 2.431 1.911 2.431Zm4.529.803v-6.551h1.019v1.008h.071c.24-.662.92-1.102 1.699-1.102.152 0 .41.012.533.018v1.061a3.922 3.922 0 0 0-.633-.059c-.943 0-1.634.639-1.634 1.523V140h-1.055Zm10.564.141c-1.781 0-2.982-1.354-2.982-3.375 0-2.051 1.201-3.399 2.982-3.399 1.266 0 2.297.668 2.655 1.811l-1.014.287c-.193-.674-.779-1.154-1.641-1.154-1.306 0-1.91 1.148-1.91 2.455 0 1.289.604 2.431 1.91 2.431.879 0 1.477-.498 1.67-1.207l1.008.287c-.351 1.166-1.394 1.864-2.678 1.864Zm6.141.011c-1.242 0-2.232-.726-2.232-2.015 0-1.5 1.336-1.776 2.548-1.928 1.166-.147 1.682-.111 1.682-.598v-.035c0-.814-.463-1.283-1.371-1.283-.943 0-1.453.504-1.658.961l-1.014-.334c.504-1.19 1.629-1.553 2.643-1.553.879 0 2.455.27 2.455 2.315V140h-1.037v-.891h-.071c-.222.463-.838 1.043-1.945 1.043Zm.182-.931c1.166 0 1.816-.785 1.816-1.588v-.908c-.176.205-1.324.322-1.728.375-.768.099-1.442.345-1.442 1.089 0 .68.568 1.032 1.354 1.032Zm6.943.861c-1.324 0-2.221-.814-2.221-2.473v-4.16h1.055v4.072c0 1.008.568 1.612 1.482 1.612.938 0 1.647-.639 1.647-1.758v-3.926h1.06V140h-1.019v-1.588h.141c-.405 1.231-1.184 1.67-2.145 1.67Zm7.107.059c-1.347 0-2.285-.598-2.519-1.729l1.002-.24c.187.721.721 1.043 1.506 1.043.914 0 1.5-.451 1.5-.99 0-.452-.317-.75-.961-.903l-1.09-.258c-1.19-.281-1.758-.867-1.758-1.787 0-1.125 1.031-1.91 2.426-1.91 1.348 0 2.057.656 2.355 1.576l-.955.246c-.181-.468-.55-.925-1.394-.925-.78 0-1.365.404-1.365.949 0 .486.334.756 1.101.937l.99.235c1.19.281 1.746.873 1.746 1.769 0 1.149-1.048 1.987-2.584 1.987Zm6.868 0c-1.899 0-3.071-1.348-3.071-3.364 0-2.009 1.16-3.41 2.948-3.41 1.388 0 2.853.856 2.853 3.276v.439h-5.086v-.891h4.518l-.492.329c0-1.29-.61-2.215-1.793-2.215-1.184 0-1.881.978-1.881 2.045v.591c0 1.459.808 2.262 2.009 2.262.774 0 1.354-.34 1.6-1.008l1.02.282c-.305.99-1.284 1.664-2.625 1.664Zm10.072 0c-1.635 0-2.772-1.313-2.772-3.399 0-2.074 1.143-3.375 2.778-3.375 1.277 0 1.681.785 1.898 1.131h.082v-3.228h1.055V140h-1.02v-1.014h-.117c-.217.364-.656 1.155-1.904 1.155Zm.158-.944c1.19 0 1.84-1.008 1.84-2.467 0-1.447-.633-2.419-1.84-2.419-1.242 0-1.857 1.06-1.857 2.419 0 1.377.632 2.467 1.857 2.467Zm6.568.955c-1.242 0-2.232-.726-2.232-2.015 0-1.5 1.336-1.776 2.549-1.928 1.166-.147 1.681-.111 1.681-.598v-.035c0-.814-.462-1.283-1.371-1.283-.943 0-1.453.504-1.658.961l-1.013-.334c.503-1.19 1.628-1.553 2.642-1.553.879 0 2.455.27 2.455 2.315V140h-1.037v-.891h-.07c-.223.463-.838 1.043-1.946 1.043Zm.182-.931c1.166 0 1.816-.785 1.816-1.588v-.908c-.175.205-1.324.322-1.728.375-.768.099-1.441.345-1.441 1.089 0 .68.568 1.032 1.353 1.032Zm7.301-5.772v.903h-3.387v-.903h3.387Zm-2.402-1.558h1.054v6.41c0 .586.217.844.774.844.134 0 .363-.036.539-.071l.217.891a2.549 2.549 0 0 1-.786.117c-1.131 0-1.798-.627-1.798-1.699v-6.492Zm5.642 8.261c-1.242 0-2.232-.726-2.232-2.015 0-1.5 1.336-1.776 2.549-1.928 1.166-.147 1.681-.111 1.681-.598v-.035c0-.814-.463-1.283-1.371-1.283-.943 0-1.453.504-1.658.961l-1.014-.334c.504-1.19 1.629-1.553 2.643-1.553.879 0 2.455.27 2.455 2.315V140h-1.037v-.891h-.071c-.222.463-.837 1.043-1.945 1.043Zm.182-.931c1.166 0 1.816-.785 1.816-1.588v-.908c-.176.205-1.324.322-1.728.375-.768.099-1.442.345-1.442 1.089 0 .68.569 1.032 1.354 1.032Zm9.568.826c-.984 0-1.471-.551-1.471-1.5v-7.277h1.055v7.013c0 .604.106.821.545.821.229 0 .322-.018.422-.047l.211.89c-.188.053-.481.1-.762.1Zm4.324.094c-1.781 0-2.982-1.354-2.982-3.375 0-2.051 1.201-3.399 2.982-3.399 1.787 0 2.994 1.348 2.994 3.399 0 2.021-1.207 3.375-2.994 3.375Zm0-.944c1.325 0 1.928-1.142 1.928-2.431 0-1.301-.603-2.455-1.928-2.455-1.306 0-1.91 1.148-1.91 2.455 0 1.289.604 2.431 1.91 2.431Zm6.756.944c-1.347 0-2.285-.598-2.519-1.729l1.002-.24c.187.721.72 1.043 1.505 1.043.915 0 1.5-.451 1.5-.99 0-.452-.316-.75-.96-.903l-1.09-.258c-1.19-.281-1.758-.867-1.758-1.787 0-1.125 1.031-1.91 2.426-1.91 1.347 0 2.056.656 2.355 1.576l-.955.246c-.182-.468-.551-.925-1.394-.925-.78 0-1.366.404-1.366.949 0 .486.334.756 1.102.937l.99.235c1.19.281 1.746.873 1.746 1.769 0 1.149-1.049 1.987-2.584 1.987Zm6.34 0c-1.348 0-2.285-.598-2.519-1.729l1.001-.24c.188.721.721 1.043 1.506 1.043.914 0 1.5-.451 1.5-.99 0-.452-.316-.75-.961-.903l-1.089-.258c-1.19-.281-1.758-.867-1.758-1.787 0-1.125 1.031-1.91 2.425-1.91 1.348 0 2.057.656 2.356 1.576l-.955.246c-.182-.468-.551-.925-1.395-.925-.779 0-1.365.404-1.365.949 0 .486.334.756 1.102.937l.99.235c1.189.281 1.746.873 1.746 1.769 0 1.149-1.049 1.987-2.584 1.987Zm4.91-.065a.789.789 0 1 1 .791-.791.79.79 0 0 1-.791.791ZM37 154.395a1.873 1.873 0 0 1-1.875-1.875c0-1.038.838-1.875 1.875-1.875s1.875.837 1.875 1.875A1.873 1.873 0 0 1 37 154.395ZM46.305 156l3.17-8.73h1.289l3.21 8.73h-1.171l-1.852-5.18c-.228-.638-.516-1.547-.943-3.029h.21a53.065 53.065 0 0 1-.93 3.029l-1.8 5.18h-1.183Zm1.593-2.438v-.972h4.483v.972h-4.483ZM55.211 156v-6.551h1.02v1.008h.07c.24-.662.92-1.102 1.699-1.102.152 0 .41.012.533.018v1.061a3.935 3.935 0 0 0-.633-.059c-.943 0-1.634.639-1.634 1.523V156H55.21Zm7.078.141c-1.898 0-3.07-1.348-3.07-3.364 0-2.009 1.16-3.41 2.947-3.41 1.389 0 2.853.856 2.853 3.276v.439h-5.085v-.891h4.517l-.492.329c0-1.29-.61-2.215-1.793-2.215-1.184 0-1.88.978-1.88 2.045v.591c0 1.459.808 2.262 2.009 2.262.773 0 1.353-.34 1.6-1.008l1.02.282c-.306.99-1.284 1.664-2.626 1.664Zm8.672-4.067V156h-1.055v-6.551h1.014l.006 1.588h-.147c.399-1.207 1.16-1.67 2.15-1.67 1.325 0 2.221.815 2.221 2.473V156h-1.06v-4.072c0-1.008-.563-1.612-1.477-1.612-.943 0-1.652.639-1.652 1.758Zm8.713 4.067c-1.781 0-2.983-1.354-2.983-3.375 0-2.051 1.202-3.399 2.983-3.399 1.787 0 2.994 1.348 2.994 3.399 0 2.021-1.207 3.375-2.994 3.375Zm0-.944c1.324 0 1.928-1.142 1.928-2.431 0-1.301-.604-2.455-1.928-2.455-1.307 0-1.91 1.148-1.91 2.455 0 1.289.603 2.431 1.91 2.431Zm7.107-5.748v.903h-3.387v-.903h3.387Zm-2.402-1.558h1.055v6.41c0 .586.216.844.773.844.135 0 .363-.036.54-.071l.216.891a2.544 2.544 0 0 1-.785.117c-1.131 0-1.8-.627-1.8-1.699v-6.492Zm9.352 8.25c-1.348 0-2.286-.598-2.52-1.729l1.002-.24c.187.721.72 1.043 1.506 1.043.914 0 1.5-.451 1.5-.99 0-.452-.317-.75-.961-.903l-1.09-.258c-1.19-.281-1.758-.867-1.758-1.787 0-1.125 1.031-1.91 2.426-1.91 1.348 0 2.057.656 2.355 1.576l-.955.246c-.181-.468-.55-.925-1.394-.925-.78 0-1.365.404-1.365.949 0 .486.334.756 1.101.937l.99.235c1.19.281 1.746.873 1.746 1.769 0 1.149-1.048 1.987-2.583 1.987Zm6.333-.059c-1.324 0-2.22-.814-2.22-2.473v-4.16h1.054v4.072c0 1.008.569 1.612 1.483 1.612.937 0 1.646-.639 1.646-1.758v-3.926h1.061V156h-1.02v-1.588h.141c-.404 1.231-1.184 1.67-2.145 1.67Zm4.881 2.367v-9h1.02v1.049h.117c.217-.346.621-1.131 1.898-1.131 1.635 0 2.778 1.301 2.778 3.375 0 2.086-1.137 3.399-2.772 3.399-1.248 0-1.687-.791-1.904-1.155H106v3.463h-1.055Zm2.883-3.252c1.225 0 1.858-1.09 1.858-2.467 0-1.359-.616-2.419-1.858-2.419-1.207 0-1.84.972-1.84 2.419 0 1.459.651 2.467 1.84 2.467Zm4.465 3.252v-9h1.019v1.049h.118c.216-.346.621-1.131 1.898-1.131 1.635 0 2.777 1.301 2.777 3.375 0 2.086-1.136 3.399-2.771 3.399-1.248 0-1.688-.791-1.904-1.155h-.082v3.463h-1.055Zm2.883-3.252c1.224 0 1.857-1.09 1.857-2.467 0-1.359-.615-2.419-1.857-2.419-1.207 0-1.84.972-1.84 2.419 0 1.459.65 2.467 1.84 2.467Zm7.131.944c-1.782 0-2.983-1.354-2.983-3.375 0-2.051 1.201-3.399 2.983-3.399 1.787 0 2.994 1.348 2.994 3.399 0 2.021-1.207 3.375-2.994 3.375Zm0-.944c1.324 0 1.927-1.142 1.927-2.431 0-1.301-.603-2.455-1.927-2.455-1.307 0-1.911 1.148-1.911 2.455 0 1.289.604 2.431 1.911 2.431Zm4.529.803v-6.551h1.019v1.008h.071c.24-.662.92-1.102 1.699-1.102.152 0 .41.012.533.018v1.061a3.922 3.922 0 0 0-.633-.059c-.943 0-1.634.639-1.634 1.523V156h-1.055Zm7.289-6.551v.903h-3.387v-.903h3.387Zm-2.402-1.558h1.054v6.41c0 .586.217.844.774.844.135 0 .363-.036.539-.071l.217.891a2.549 2.549 0 0 1-.786.117c-1.13 0-1.798-.627-1.798-1.699v-6.492Zm6.386 8.25c-1.898 0-3.07-1.348-3.07-3.364 0-2.009 1.16-3.41 2.947-3.41 1.389 0 2.854.856 2.854 3.276v.439h-5.086v-.891h4.517l-.492.329c0-1.29-.609-2.215-1.793-2.215-1.183 0-1.881.978-1.881 2.045v.591c0 1.459.809 2.262 2.01 2.262.774 0 1.354-.34 1.6-1.008l1.019.282c-.304.99-1.283 1.664-2.625 1.664Zm6.698 0c-1.635 0-2.772-1.313-2.772-3.399 0-2.074 1.143-3.375 2.777-3.375 1.278 0 1.682.785 1.899 1.131h.082v-3.228h1.055V156h-1.02v-1.014h-.117c-.217.364-.656 1.155-1.904 1.155Zm.158-.944c1.189 0 1.84-1.008 1.84-2.467 0-1.447-.633-2.419-1.84-2.419-1.242 0-1.858 1.06-1.858 2.419 0 1.377.633 2.467 1.858 2.467Zm9.943.955c-1.242 0-2.232-.726-2.232-2.015 0-1.5 1.336-1.776 2.549-1.928 1.166-.147 1.681-.111 1.681-.598v-.035c0-.814-.463-1.283-1.371-1.283-.943 0-1.453.504-1.658.961l-1.014-.334c.504-1.19 1.629-1.553 2.643-1.553.879 0 2.455.27 2.455 2.315V156h-1.037v-.891h-.07c-.223.463-.838 1.043-1.946 1.043Zm.182-.931c1.166 0 1.816-.785 1.816-1.588v-.908c-.176.205-1.324.322-1.728.375-.768.099-1.442.345-1.442 1.089 0 .68.569 1.032 1.354 1.032Zm5.777-3.147V156h-1.055v-6.551h1.014l.006 1.588h-.146c.398-1.207 1.16-1.67 2.15-1.67 1.324 0 2.221.815 2.221 2.473V156h-1.061v-4.072c0-1.008-.562-1.612-1.476-1.612-.944 0-1.653.639-1.653 1.758Zm8.502 4.067c-1.635 0-2.771-1.313-2.771-3.399 0-2.074 1.142-3.375 2.777-3.375 1.277 0 1.682.785 1.898 1.131h.082v-3.228h1.055V156h-1.019v-1.014h-.118c-.216.364-.656 1.155-1.904 1.155Zm.158-.944c1.19 0 1.84-1.008 1.84-2.467 0-1.447-.633-2.419-1.84-2.419-1.242 0-1.857 1.06-1.857 2.419 0 1.377.633 2.467 1.857 2.467Zm8.11.803v-6.551h1.025l.006 1.465h-.082c.264-1.06 1.066-1.582 1.916-1.582.949 0 1.553.645 1.728 1.594h-.14c.234-.979 1.101-1.594 2.144-1.594 1.137 0 2.063.732 2.063 2.25V156h-1.061v-4.389c0-.943-.615-1.318-1.318-1.318-.885 0-1.424.603-1.424 1.43V156h-1.055v-4.494c0-.727-.544-1.213-1.283-1.213-.767 0-1.465.539-1.465 1.582V156h-1.054Zm10.511 0v-6.551h1.055V156h-1.055Zm.534-7.623c-.399 0-.733-.311-.733-.697 0-.387.334-.698.733-.698.404 0 .738.311.738.698 0 .386-.334.697-.738.697Zm5.027 10.213c-1.453 0-2.291-.615-2.695-1.336l.855-.551c.276.381.686.967 1.84.967 1.043 0 1.799-.481 1.799-1.559v-1.312h-.1c-.222.375-.638 1.096-1.904 1.096-1.57 0-2.766-1.143-2.766-3.2 0-2.027 1.155-3.328 2.789-3.328 1.266 0 1.688.779 1.911 1.131h.099v-1.049h1.025v6.721c0 1.693-1.259 2.42-2.853 2.42Zm-.029-3.633c1.189 0 1.84-.855 1.84-2.285 0-1.389-.633-2.361-1.84-2.361-1.248 0-1.869 1.054-1.869 2.361 0 1.348.638 2.285 1.869 2.285Zm5.789-2.883V156h-1.055v-8.73h1.055v3.767h-.182c.399-1.207 1.16-1.67 2.151-1.67 1.324 0 2.22.815 2.22 2.473V156h-1.06v-4.072c0-1.008-.563-1.612-1.477-1.612-.943 0-1.652.639-1.652 1.758Zm8.625-2.625v.903h-3.387v-.903h3.387Zm-2.403-1.558h1.055v6.41c0 .586.217.844.774.844.134 0 .363-.036.539-.071l.216.891a2.537 2.537 0 0 1-.785.117c-1.131 0-1.799-.627-1.799-1.699v-6.492Zm8.18 4.183V156h-1.055v-6.551h1.014l.006 1.588h-.147c.399-1.207 1.161-1.67 2.151-1.67 1.324 0 2.221.815 2.221 2.473V156H217v-4.072c0-1.008-.562-1.612-1.477-1.612-.943 0-1.652.639-1.652 1.758Zm8.713 4.067c-1.781 0-2.982-1.354-2.982-3.375 0-2.051 1.201-3.399 2.982-3.399 1.787 0 2.994 1.348 2.994 3.399 0 2.021-1.207 3.375-2.994 3.375Zm0-.944c1.324 0 1.928-1.142 1.928-2.431 0-1.301-.604-2.455-1.928-2.455-1.307 0-1.91 1.148-1.91 2.455 0 1.289.603 2.431 1.91 2.431Zm7.107-5.748v.903h-3.386v-.903h3.386Zm-2.402-1.558h1.055v6.41c0 .586.217.844.773.844.135 0 .363-.036.539-.071l.217.891a2.547 2.547 0 0 1-.785.117c-1.131 0-1.799-.627-1.799-1.699v-6.492Zm10.166 8.25c-1.248 0-1.687-.791-1.904-1.155h-.117V156h-1.02v-8.73h1.055v3.228h.082c.217-.346.621-1.131 1.898-1.131 1.635 0 2.778 1.301 2.778 3.375 0 2.086-1.137 3.399-2.772 3.399Zm-.158-.944c1.224 0 1.857-1.09 1.857-2.467 0-1.359-.615-2.419-1.857-2.419-1.207 0-1.84.972-1.84 2.419 0 1.459.65 2.467 1.84 2.467Zm7.219.944c-1.899 0-3.071-1.348-3.071-3.364 0-2.009 1.16-3.41 2.948-3.41 1.388 0 2.853.856 2.853 3.276v.439h-5.086v-.891h4.518l-.492.329c0-1.29-.61-2.215-1.793-2.215-1.184 0-1.881.978-1.881 2.045v.591c0 1.459.808 2.262 2.009 2.262.774 0 1.354-.34 1.6-1.008l1.02.282c-.305.99-1.284 1.664-2.625 1.664Zm-195.135 16c-1.635 0-2.772-1.313-2.772-3.399 0-2.074 1.143-3.375 2.778-3.375 1.277 0 1.681.785 1.898 1.131h.082v-3.228h1.055V172h-1.02v-1.014h-.117c-.217.364-.656 1.155-1.904 1.155Zm.158-.944c1.19 0 1.84-1.008 1.84-2.467 0-1.447-.633-2.419-1.84-2.419-1.242 0-1.857 1.06-1.857 2.419 0 1.377.633 2.467 1.857 2.467Zm7.4.944c-1.78 0-2.982-1.354-2.982-3.375 0-2.051 1.201-3.399 2.983-3.399 1.787 0 2.994 1.348 2.994 3.399 0 2.021-1.207 3.375-2.994 3.375Zm0-.944c1.325 0 1.928-1.142 1.928-2.431 0-1.301-.603-2.455-1.927-2.455-1.307 0-1.91 1.148-1.91 2.455 0 1.289.603 2.431 1.91 2.431Zm7.196.944c-1.782 0-2.983-1.354-2.983-3.375 0-2.051 1.201-3.399 2.983-3.399 1.265 0 2.297.668 2.654 1.811l-1.014.287c-.193-.674-.779-1.154-1.64-1.154-1.307 0-1.91 1.148-1.91 2.455 0 1.289.603 2.431 1.91 2.431.879 0 1.476-.498 1.67-1.207l1.007.287c-.351 1.166-1.394 1.864-2.677 1.864Zm6.41-.059c-1.324 0-2.22-.814-2.22-2.473v-4.16h1.054v4.072c0 1.008.568 1.612 1.482 1.612.938 0 1.647-.639 1.647-1.758v-3.926h1.06V172h-1.02v-1.588h.141c-.404 1.231-1.183 1.67-2.144 1.67Zm4.88-.082v-6.551h1.026l.006 1.465h-.082c.264-1.06 1.066-1.582 1.916-1.582.95 0 1.553.645 1.728 1.594h-.14c.234-.979 1.102-1.594 2.144-1.594 1.137 0 2.063.732 2.063 2.25V172h-1.06v-4.389c0-.943-.616-1.318-1.319-1.318-.885 0-1.424.603-1.424 1.43V172h-1.055v-4.494c0-.727-.544-1.213-1.283-1.213-.767 0-1.464.539-1.464 1.582V172h-1.055Zm13.266.141c-1.898 0-3.07-1.348-3.07-3.364 0-2.009 1.16-3.41 2.947-3.41 1.389 0 2.854.856 2.854 3.276v.439h-5.086v-.891h4.517l-.492.329c0-1.29-.609-2.215-1.793-2.215-1.183 0-1.88.978-1.88 2.045v.591c0 1.459.808 2.262 2.01 2.262.773 0 1.353-.34 1.599-1.008l1.02.282c-.305.99-1.284 1.664-2.626 1.664Zm5.297-4.067V172h-1.054v-6.551h1.013l.006 1.588h-.146c.398-1.207 1.16-1.67 2.15-1.67 1.324 0 2.22.815 2.22 2.473V172h-1.06v-4.072c0-1.008-.562-1.612-1.476-1.612-.944 0-1.653.639-1.653 1.758Zm8.625-2.625v.903h-3.386v-.903h3.386Zm-2.402-1.558h1.055v6.41c0 .586.216.844.773.844.135 0 .363-.036.539-.071l.217.891a2.547 2.547 0 0 1-.785.117c-1.131 0-1.799-.627-1.799-1.699v-6.492Zm6.387 8.25c-1.899 0-3.071-1.348-3.071-3.364 0-2.009 1.161-3.41 2.948-3.41 1.388 0 2.853.856 2.853 3.276v.439h-5.086v-.891h4.518l-.492.329c0-1.29-.61-2.215-1.793-2.215-1.184 0-1.881.978-1.881 2.045v.591c0 1.459.808 2.262 2.01 2.262.773 0 1.353-.34 1.599-1.008l1.02.282c-.305.99-1.284 1.664-2.625 1.664Zm6.697 0c-1.635 0-2.772-1.313-2.772-3.399 0-2.074 1.143-3.375 2.778-3.375 1.277 0 1.681.785 1.898 1.131h.082v-3.228h1.055V172h-1.02v-1.014h-.117c-.217.364-.656 1.155-1.904 1.155Zm.158-.944c1.19 0 1.84-1.008 1.84-2.467 0-1.447-.633-2.419-1.84-2.419-1.242 0-1.857 1.06-1.857 2.419 0 1.377.633 2.467 1.857 2.467Zm5.531.879a.79.79 0 0 1-.785-.791.79.79 0 0 1 .785-.785.79.79 0 0 1 .791.785.79.79 0 0 1-.791.791ZM37 186.395a1.873 1.873 0 0 1-1.875-1.875c0-1.038.838-1.875 1.875-1.875s1.875.837 1.875 1.875A1.873 1.873 0 0 1 37 186.395Zm13.588 1.722c-2.238 0-3.873-1.711-3.873-4.476 0-2.772 1.635-4.489 3.873-4.489 1.77 0 3.21 1.067 3.521 2.866h-1.113c-.246-1.196-1.271-1.834-2.408-1.834-1.57 0-2.79 1.218-2.79 3.457 0 2.232 1.225 3.445 2.79 3.445 1.142 0 2.162-.645 2.408-1.834h1.113c-.304 1.775-1.734 2.865-3.521 2.865Zm7.77.024c-1.782 0-2.983-1.354-2.983-3.375 0-2.051 1.201-3.399 2.982-3.399 1.788 0 2.995 1.348 2.995 3.399 0 2.021-1.207 3.375-2.995 3.375Zm0-.944c1.324 0 1.927-1.142 1.927-2.431 0-1.301-.603-2.455-1.928-2.455-1.306 0-1.91 1.148-1.91 2.455 0 1.289.604 2.431 1.91 2.431Zm6.75.885c-1.325 0-2.221-.814-2.221-2.473v-4.16h1.054v4.072c0 1.008.569 1.612 1.483 1.612.937 0 1.646-.639 1.646-1.758v-3.926h1.06V188h-1.019v-1.588h.141c-.404 1.231-1.184 1.67-2.145 1.67Zm6.351-.035c-.984 0-1.47-.551-1.47-1.5v-7.277h1.054v7.013c0 .604.105.821.545.821.228 0 .322-.018.422-.047l.21.89c-.187.053-.48.1-.761.1Zm4.113.094c-1.635 0-2.771-1.313-2.771-3.399 0-2.074 1.142-3.375 2.777-3.375 1.278 0 1.682.785 1.899 1.131h.082v-3.228h1.054V188h-1.02v-1.014h-.116c-.217.364-.657 1.155-1.905 1.155Zm.159-.944c1.189 0 1.84-1.008 1.84-2.467 0-1.447-.633-2.419-1.84-2.419-1.243 0-1.858 1.06-1.858 2.419 0 1.377.633 2.467 1.858 2.467Zm11.15.944c-1.248 0-1.688-.791-1.904-1.155h-.118V188h-1.02v-8.73h1.055v3.228h.083c.216-.346.62-1.131 1.898-1.131 1.635 0 2.777 1.301 2.777 3.375 0 2.086-1.136 3.399-2.771 3.399Zm-.158-.944c1.224 0 1.857-1.09 1.857-2.467 0-1.359-.615-2.419-1.857-2.419-1.207 0-1.84.972-1.84 2.419 0 1.459.65 2.467 1.84 2.467Zm7.218.944c-1.898 0-3.07-1.348-3.07-3.364 0-2.009 1.16-3.41 2.947-3.41 1.389 0 2.854.856 2.854 3.276v.439h-5.086v-.891h4.517l-.492.329c0-1.29-.609-2.215-1.793-2.215-1.183 0-1.88.978-1.88 2.045v.591c0 1.459.808 2.262 2.01 2.262.773 0 1.353-.34 1.599-1.008l1.02.282c-.305.99-1.284 1.664-2.626 1.664Zm10.284 0c-1.782 0-2.983-1.354-2.983-3.375 0-2.051 1.201-3.399 2.983-3.399 1.265 0 2.296.668 2.654 1.811l-1.014.287c-.193-.674-.779-1.154-1.64-1.154-1.307 0-1.911 1.148-1.911 2.455 0 1.289.604 2.431 1.911 2.431.879 0 1.476-.498 1.67-1.207l1.007.287c-.351 1.166-1.394 1.864-2.677 1.864Zm5.244-4.067V188h-1.055v-8.73h1.055v3.767h-.182c.399-1.207 1.16-1.67 2.151-1.67 1.324 0 2.22.815 2.22 2.473V188h-1.06v-4.072c0-1.008-.563-1.612-1.477-1.612-.943 0-1.652.639-1.652 1.758Zm7.881 4.078c-1.243 0-2.233-.726-2.233-2.015 0-1.5 1.336-1.776 2.549-1.928 1.166-.147 1.682-.111 1.682-.598v-.035c0-.814-.463-1.283-1.371-1.283-.944 0-1.454.504-1.659.961l-1.013-.334c.504-1.19 1.629-1.553 2.642-1.553.879 0 2.455.27 2.455 2.315V188h-1.037v-.891h-.07c-.223.463-.838 1.043-1.945 1.043Zm.181-.931c1.166 0 1.817-.785 1.817-1.588v-.908c-.176.205-1.325.322-1.729.375-.767.099-1.441.345-1.441 1.089 0 .68.568 1.032 1.353 1.032Zm5.778-3.147V188h-1.055v-6.551h1.014l.005 1.588h-.146c.398-1.207 1.16-1.67 2.15-1.67 1.325 0 2.221.815 2.221 2.473V188h-1.06v-4.072c0-1.008-.563-1.612-1.477-1.612-.943 0-1.652.639-1.652 1.758Zm8.701 6.516c-1.453 0-2.291-.615-2.696-1.336l.856-.551c.275.381.685.967 1.84.967 1.043 0 1.799-.481 1.799-1.559v-1.312h-.1c-.223.375-.639 1.096-1.904 1.096-1.571 0-2.766-1.143-2.766-3.2 0-2.027 1.154-3.328 2.789-3.328 1.266 0 1.688.779 1.91 1.131h.1v-1.049h1.025v6.721c0 1.693-1.259 2.42-2.853 2.42Zm-.03-3.633c1.19 0 1.84-.855 1.84-2.285 0-1.389-.632-2.361-1.84-2.361-1.248 0-1.869 1.054-1.869 2.361 0 1.348.639 2.285 1.869 2.285Zm7.489 1.184c-1.899 0-3.071-1.348-3.071-3.364 0-2.009 1.161-3.41 2.948-3.41 1.388 0 2.853.856 2.853 3.276v.439h-5.086v-.891h4.518l-.492.329c0-1.29-.61-2.215-1.793-2.215-1.184 0-1.881.978-1.881 2.045v.591c0 1.459.808 2.262 2.01 2.262.773 0 1.353-.34 1.599-1.008l1.02.282c-.305.99-1.283 1.664-2.625 1.664Zm6.697 0c-1.635 0-2.771-1.313-2.771-3.399 0-2.074 1.142-3.375 2.777-3.375 1.277 0 1.682.785 1.898 1.131h.082v-3.228h1.055V188h-1.019v-1.014h-.118c-.216.364-.656 1.155-1.904 1.155Zm.158-.944c1.19 0 1.84-1.008 1.84-2.467 0-1.447-.633-2.419-1.84-2.419-1.242 0-1.857 1.06-1.857 2.419 0 1.377.633 2.467 1.857 2.467Zm10.776.944c-1.782 0-2.983-1.354-2.983-3.375 0-2.051 1.201-3.399 2.983-3.399 1.787 0 2.994 1.348 2.994 3.399 0 2.021-1.207 3.375-2.994 3.375Zm0-.944c1.324 0 1.927-1.142 1.927-2.431 0-1.301-.603-2.455-1.927-2.455-1.307 0-1.911 1.148-1.911 2.455 0 1.289.604 2.431 1.911 2.431Zm4.529.803v-6.551h1.019v1.008h.071c.24-.662.92-1.102 1.699-1.102.152 0 .41.012.533.018v1.061a3.922 3.922 0 0 0-.633-.059c-.943 0-1.634.639-1.634 1.523V188h-1.055Zm7.898 0v-6.551h1.02v1.008h.07c.24-.662.92-1.102 1.699-1.102.153 0 .411.012.534.018v1.061a3.95 3.95 0 0 0-.633-.059c-.944 0-1.635.639-1.635 1.523V188h-1.055Zm7.078.141c-1.898 0-3.07-1.348-3.07-3.364 0-2.009 1.16-3.41 2.947-3.41 1.389 0 2.854.856 2.854 3.276v.439h-5.086v-.891h4.518l-.493.329c0-1.29-.609-2.215-1.793-2.215-1.183 0-1.88.978-1.88 2.045v.591c0 1.459.808 2.262 2.009 2.262.774 0 1.354-.34 1.6-1.008l1.019.282c-.304.99-1.283 1.664-2.625 1.664Zm4.243-.141v-6.551h1.025l.006 1.465h-.082c.264-1.06 1.066-1.582 1.916-1.582.949 0 1.553.645 1.728 1.594h-.14c.234-.979 1.101-1.594 2.144-1.594 1.137 0 2.063.732 2.063 2.25V188h-1.061v-4.389c0-.943-.615-1.318-1.318-1.318-.885 0-1.424.603-1.424 1.43V188h-1.055v-4.494c0-.727-.545-1.213-1.283-1.213-.767 0-1.465.539-1.465 1.582V188h-1.054Zm13.177.141c-1.781 0-2.982-1.354-2.982-3.375 0-2.051 1.201-3.399 2.982-3.399 1.787 0 2.995 1.348 2.995 3.399 0 2.021-1.208 3.375-2.995 3.375Zm0-.944c1.325 0 1.928-1.142 1.928-2.431 0-1.301-.603-2.455-1.928-2.455-1.306 0-1.91 1.148-1.91 2.455 0 1.289.604 2.431 1.91 2.431Zm6.188.803-2.502-6.551h1.154l1.395 3.885c.293.809.474 1.617.703 2.367h-.387c.229-.75.404-1.558.697-2.367l1.395-3.885h1.154L201.32 188h-1.107Zm7.377.141c-1.899 0-3.07-1.348-3.07-3.364 0-2.009 1.16-3.41 2.947-3.41 1.388 0 2.853.856 2.853 3.276v.439h-5.086v-.891h4.518l-.492.329c0-1.29-.61-2.215-1.793-2.215-1.184 0-1.881.978-1.881 2.045v.591c0 1.459.809 2.262 2.01 2.262.773 0 1.353-.34 1.599-1.008l1.02.282c-.305.99-1.283 1.664-2.625 1.664Zm6.697 0c-1.635 0-2.771-1.313-2.771-3.399 0-2.074 1.142-3.375 2.777-3.375 1.277 0 1.682.785 1.898 1.131h.082v-3.228h1.055V188h-1.019v-1.014h-.118c-.216.364-.656 1.155-1.904 1.155Zm.158-.944c1.19 0 1.84-1.008 1.84-2.467 0-1.447-.633-2.419-1.84-2.419-1.242 0-1.857 1.06-1.857 2.419 0 1.377.633 2.467 1.857 2.467Zm9.944.955c-1.243 0-2.233-.726-2.233-2.015 0-1.5 1.336-1.776 2.549-1.928 1.166-.147 1.682-.111 1.682-.598v-.035c0-.814-.463-1.283-1.371-1.283-.944 0-1.454.504-1.659.961l-1.013-.334c.504-1.19 1.629-1.553 2.642-1.553.879 0 2.455.27 2.455 2.315V188h-1.037v-.891h-.07c-.223.463-.838 1.043-1.945 1.043Zm.181-.931c1.166 0 1.817-.785 1.817-1.588v-.908c-.176.205-1.325.322-1.729.375-.767.099-1.441.345-1.441 1.089 0 .68.568 1.032 1.353 1.032Zm7.301-5.772v.903h-3.387v-.903h3.387Zm-2.402-1.558h1.054v6.41c0 .586.217.844.774.844.135 0 .363-.036.539-.071l.217.891a2.547 2.547 0 0 1-.785.117c-1.131 0-1.799-.627-1.799-1.699v-6.492Zm8.959 8.261c-1.242 0-2.233-.726-2.233-2.015 0-1.5 1.336-1.776 2.549-1.928 1.166-.147 1.682-.111 1.682-.598v-.035c0-.814-.463-1.283-1.371-1.283-.944 0-1.453.504-1.659.961l-1.013-.334c.504-1.19 1.629-1.553 2.642-1.553.879 0 2.455.27 2.455 2.315V188h-1.037v-.891h-.07c-.223.463-.838 1.043-1.945 1.043Zm.181-.931c1.166 0 1.817-.785 1.817-1.588v-.908c-.176.205-1.324.322-1.729.375-.767.099-1.441.345-1.441 1.089 0 .68.568 1.032 1.353 1.032Zm5.778-3.147V188h-1.055v-6.551h1.014l.006 1.588h-.147c.399-1.207 1.16-1.67 2.15-1.67 1.325 0 2.221.815 2.221 2.473V188h-1.06v-4.072c0-1.008-.563-1.612-1.477-1.612-.943 0-1.652.639-1.652 1.758Zm5.765 6.299.27-.914.111.029c.645.17 1.108.03 1.43-.908l.187-.545-2.502-6.586h1.155l1.394 3.885c.293.814.469 1.617.698 2.367h-.387c.222-.75.404-1.558.697-2.367l1.406-3.885h1.149l-2.877 7.53c-.399 1.042-1.031 1.517-1.957 1.517-.375 0-.662-.07-.774-.123Zm-200.648 7.076v.903h-3.387v-.903h3.387Zm-2.402-1.558h1.054v6.41c0 .586.217.844.774.844.135 0 .363-.036.539-.071l.216.891a2.544 2.544 0 0 1-.785.117c-1.13 0-1.798-.627-1.798-1.699v-6.492Zm3.75 8.109v-6.551h1.054V204h-1.054Zm.533-7.623c-.399 0-.733-.311-.733-.697 0-.387.334-.698.733-.698.404 0 .738.311.738.698 0 .386-.334.697-.738.697ZM53.758 204v-6.551h1.025l.006 1.465h-.082c.264-1.06 1.066-1.582 1.916-1.582.95 0 1.553.645 1.729 1.594h-.141c.234-.979 1.102-1.594 2.145-1.594 1.136 0 2.062.732 2.062 2.25V204h-1.06v-4.389c0-.943-.616-1.318-1.319-1.318-.885 0-1.424.603-1.424 1.43V204H57.56v-4.494c0-.727-.544-1.213-1.283-1.213-.767 0-1.465.539-1.465 1.582V204h-1.054Zm13.265.141c-1.898 0-3.07-1.348-3.07-3.364 0-2.009 1.16-3.41 2.947-3.41 1.39 0 2.854.856 2.854 3.276v.439h-5.086v-.891h4.517l-.492.329c0-1.29-.609-2.215-1.793-2.215-1.183 0-1.88.978-1.88 2.045v.591c0 1.459.808 2.262 2.01 2.262.773 0 1.353-.34 1.599-1.008l1.02.282c-.305.99-1.284 1.664-2.626 1.664Zm5.04-.065a.79.79 0 0 1-.786-.791.79.79 0 0 1 1.576 0 .79.79 0 0 1-.79.791ZM37 218.395a1.873 1.873 0 0 1-1.875-1.875c0-1.038.838-1.875 1.875-1.875s1.875.837 1.875 1.875A1.873 1.873 0 0 1 37 218.395ZM46.305 220l3.17-8.73h1.289l3.21 8.73h-1.171l-1.852-5.18c-.228-.638-.516-1.547-.943-3.029h.21a53.065 53.065 0 0 1-.93 3.029l-1.8 5.18h-1.183Zm1.593-2.438v-.972h4.483v.972h-4.483ZM55.211 220v-6.551h1.02v1.008h.07c.24-.662.92-1.102 1.699-1.102.152 0 .41.012.533.018v1.061a3.935 3.935 0 0 0-.633-.059c-.943 0-1.634.639-1.634 1.523V220H55.21Zm7.078.141c-1.898 0-3.07-1.348-3.07-3.364 0-2.009 1.16-3.41 2.947-3.41 1.389 0 2.853.856 2.853 3.276v.439h-5.085v-.891h4.517l-.492.329c0-1.29-.61-2.215-1.793-2.215-1.184 0-1.88.978-1.88 2.045v.591c0 1.459.808 2.262 2.009 2.262.773 0 1.353-.34 1.6-1.008l1.02.282c-.306.99-1.284 1.664-2.626 1.664Zm9.844 0c-1.348 0-2.285-.598-2.52-1.729l1.002-.24c.188.721.72 1.043 1.506 1.043.914 0 1.5-.451 1.5-.99 0-.452-.316-.75-.96-.903l-1.09-.258c-1.19-.281-1.758-.867-1.758-1.787 0-1.125 1.03-1.91 2.425-1.91 1.348 0 2.057.656 2.356 1.576l-.955.246c-.182-.468-.551-.925-1.395-.925-.78 0-1.365.404-1.365.949 0 .486.334.756 1.102.937l.99.235c1.19.281 1.746.873 1.746 1.769 0 1.149-1.049 1.987-2.584 1.987Zm6.334-.059c-1.324 0-2.22-.814-2.22-2.473v-4.16H77.3v4.072c0 1.008.568 1.612 1.482 1.612.938 0 1.647-.639 1.647-1.758v-3.926h1.06V220h-1.02v-1.588h.141c-.404 1.231-1.183 1.67-2.144 1.67Zm7.922.059c-1.248 0-1.688-.791-1.905-1.155h-.117V220h-1.02v-8.73h1.055v3.228h.082c.217-.346.622-1.131 1.899-1.131 1.635 0 2.777 1.301 2.777 3.375 0 2.086-1.137 3.399-2.771 3.399Zm-.158-.944c1.224 0 1.857-1.09 1.857-2.467 0-1.359-.615-2.419-1.857-2.419-1.208 0-1.84.972-1.84 2.419 0 1.459.65 2.467 1.84 2.467Zm4.459-5.748h1.06v7.02c.006 1.248-.65 1.98-1.922 1.98h-.21v-.972h.193c.609 0 .878-.358.878-1.008v-7.02Zm.533-1.072c-.399 0-.733-.311-.733-.697 0-.387.334-.698.733-.698.404 0 .738.311.738.698 0 .386-.334.697-.738.697Zm5.133 7.764c-1.899 0-3.07-1.348-3.07-3.364 0-2.009 1.16-3.41 2.946-3.41 1.39 0 2.854.856 2.854 3.276v.439H94v-.891h4.518l-.493.329c0-1.29-.609-2.215-1.793-2.215-1.183 0-1.88.978-1.88 2.045v.591c0 1.459.808 2.262 2.01 2.262.773 0 1.353-.34 1.599-1.008l1.02.282c-.305.99-1.284 1.664-2.625 1.664Zm6.908 0c-1.782 0-2.983-1.354-2.983-3.375 0-2.051 1.201-3.399 2.983-3.399 1.265 0 2.297.668 2.654 1.811l-1.014.287c-.193-.674-.779-1.154-1.64-1.154-1.307 0-1.91 1.148-1.91 2.455 0 1.289.603 2.431 1.91 2.431.879 0 1.476-.498 1.67-1.207l1.007.287c-.351 1.166-1.394 1.864-2.677 1.864Zm6.767-6.692v.903h-3.386v-.903h3.386Zm-2.402-1.558h1.055v6.41c0 .586.216.844.773.844.135 0 .363-.036.539-.071l.217.891a2.547 2.547 0 0 1-.785.117c-1.131 0-1.799-.627-1.799-1.699v-6.492Zm9.703 1.558v.903h-3.387v-.903h3.387Zm-2.402-1.558h1.054v6.41c0 .586.217.844.774.844.135 0 .363-.036.539-.071l.217.891a2.547 2.547 0 0 1-.785.117c-1.131 0-1.799-.627-1.799-1.699v-6.492Zm6.299 8.25c-1.782 0-2.983-1.354-2.983-3.375 0-2.051 1.201-3.399 2.983-3.399 1.787 0 2.994 1.348 2.994 3.399 0 2.021-1.207 3.375-2.994 3.375Zm0-.944c1.324 0 1.927-1.142 1.927-2.431 0-1.301-.603-2.455-1.927-2.455-1.307 0-1.911 1.148-1.911 2.455 0 1.289.604 2.431 1.911 2.431Zm10.482-5.748v.903h-3.387v-.903h3.387Zm-2.402-1.558h1.054v6.41c0 .586.217.844.774.844.134 0 .363-.036.539-.071l.217.891a2.549 2.549 0 0 1-.786.117c-1.13 0-1.798-.627-1.798-1.699v-6.492Zm4.804 4.183V220h-1.054v-8.73h1.054v3.767h-.181c.398-1.207 1.16-1.67 2.15-1.67 1.324 0 2.221.815 2.221 2.473V220h-1.061v-4.072c0-1.008-.562-1.612-1.476-1.612-.944 0-1.653.639-1.653 1.758Zm8.801 4.067c-1.898 0-3.07-1.348-3.07-3.364 0-2.009 1.16-3.41 2.947-3.41 1.389 0 2.854.856 2.854 3.276v.439h-5.086v-.891h4.517l-.492.329c0-1.29-.609-2.215-1.793-2.215s-1.881.978-1.881 2.045v.591c0 1.459.809 2.262 2.01 2.262.773 0 1.353-.34 1.6-1.008l1.019.282c-.305.99-1.283 1.664-2.625 1.664Zm-32.695 15.935a.789.789 0 1 1 .791-.791c0 .44-.358.791-.791.791Z"/>
    <path fill="#0B5CAD" d="M154.229 220.117c-2.333 0-3.909-1.717-3.909-4.476 0-2.772 1.6-4.489 3.838-4.489 1.846 0 3.27 1.16 3.586 2.854h-1.148c-.358-1.119-1.196-1.822-2.432-1.822-1.535 0-2.76 1.212-2.76 3.457 0 2.226 1.219 3.445 2.825 3.445 1.476 0 2.49-.996 2.49-2.566l.334.064h-2.596v-.973h3.352v.955c0 2.168-1.5 3.551-3.58 3.551Zm5.255-.117v-6.551h1.055V220h-1.055Zm.534-7.623c-.399 0-.733-.311-.733-.697 0-.387.334-.698.733-.698.404 0 .738.311.738.698 0 .386-.334.697-.738.697Zm4.951 1.072v.903h-3.387v-.903h3.387Zm-2.403-1.558h1.055v6.41c0 .586.217.844.774.844.134 0 .363-.036.539-.071l.216.891a2.537 2.537 0 0 1-.785.117c-1.131 0-1.799-.627-1.799-1.699v-6.492Zm3.879 8.109v-8.73h1.114v7.746h4.043V220h-5.157Zm8.491.152c-1.243 0-2.233-.726-2.233-2.015 0-1.5 1.336-1.776 2.549-1.928 1.166-.147 1.682-.111 1.682-.598v-.035c0-.814-.463-1.283-1.372-1.283-.943 0-1.453.504-1.658.961l-1.013-.334c.504-1.19 1.629-1.553 2.642-1.553.879 0 2.455.27 2.455 2.315V220h-1.037v-.891h-.07c-.223.463-.838 1.043-1.945 1.043Zm.181-.931c1.166 0 1.817-.785 1.817-1.588v-.908c-.176.205-1.325.322-1.729.375-.767.099-1.441.345-1.441 1.089 0 .68.568 1.032 1.353 1.032Zm7.764.92c-1.248 0-1.688-.791-1.904-1.155h-.118V220h-1.019v-8.73h1.055v3.228h.082c.216-.346.621-1.131 1.898-1.131 1.635 0 2.777 1.301 2.777 3.375 0 2.086-1.136 3.399-2.771 3.399Zm-.158-.944c1.224 0 1.857-1.09 1.857-2.467 0-1.359-.615-2.419-1.857-2.419-1.207 0-1.84.972-1.84 2.419 0 1.459.65 2.467 1.84 2.467Zm7.488-6.943v-.984h6.598v.984h-2.737V220h-1.113v-7.746h-2.748Zm9.914 7.887c-1.898 0-3.07-1.348-3.07-3.364 0-2.009 1.16-3.41 2.947-3.41 1.389 0 2.853.856 2.853 3.276v.439h-5.085v-.891h4.517l-.492.329c0-1.29-.609-2.215-1.793-2.215s-1.881.978-1.881 2.045v.591c0 1.459.809 2.262 2.01 2.262.773 0 1.353-.34 1.599-1.008l1.02.282c-.305.99-1.283 1.664-2.625 1.664Zm6.469 0c-1.348 0-2.285-.598-2.52-1.729l1.002-.24c.188.721.721 1.043 1.506 1.043.914 0 1.5-.451 1.5-.99 0-.452-.316-.75-.961-.903l-1.09-.258c-1.189-.281-1.758-.867-1.758-1.787 0-1.125 1.032-1.91 2.426-1.91 1.348 0 2.057.656 2.356 1.576l-.955.246c-.182-.468-.551-.925-1.395-.925-.779 0-1.365.404-1.365.949 0 .486.334.756 1.101.937l.991.235c1.189.281 1.746.873 1.746 1.769 0 1.149-1.049 1.987-2.584 1.987Zm6.691-6.692v.903h-3.387v-.903h3.387Zm-2.402-1.558h1.055v6.41c0 .586.216.844.773.844.135 0 .363-.036.539-.071l.217.891a2.547 2.547 0 0 1-.785.117c-1.131 0-1.799-.627-1.799-1.699v-6.492Zm3.75 8.109v-6.551h1.055V220h-1.055Zm.533-7.623c-.398 0-.732-.311-.732-.697 0-.387.334-.698.732-.698.404 0 .738.311.738.698 0 .386-.334.697-.738.697Zm3.428 3.697V220h-1.055v-6.551h1.014l.006 1.588h-.147c.399-1.207 1.16-1.67 2.15-1.67 1.325 0 2.221.815 2.221 2.473V220h-1.06v-4.072c0-1.008-.563-1.612-1.477-1.612-.943 0-1.652.639-1.652 1.758Zm8.701 6.516c-1.453 0-2.291-.615-2.695-1.336l.855-.551c.275.381.686.967 1.84.967 1.043 0 1.799-.481 1.799-1.559v-1.312h-.1c-.223.375-.639 1.096-1.904 1.096-1.57 0-2.766-1.143-2.766-3.2 0-2.027 1.155-3.328 2.789-3.328 1.266 0 1.688.779 1.91 1.131h.1v-1.049h1.025v6.721c0 1.693-1.259 2.42-2.853 2.42Zm-.029-3.633c1.189 0 1.839-.855 1.839-2.285 0-1.389-.632-2.361-1.839-2.361-1.248 0-1.87 1.054-1.87 2.361 0 1.348.639 2.285 1.87 2.285ZM46.305 236l3.17-8.73h1.289l3.21 8.73h-1.171l-1.852-5.18c-.228-.638-.516-1.547-.943-3.029h.21a53.065 53.065 0 0 1-.93 3.029l-1.8 5.18h-1.183Zm1.593-2.438v-.972h4.483v.972h-4.483Zm9.967 5.028c-1.453 0-2.29-.615-2.695-1.336l.855-.551c.276.381.686.967 1.84.967 1.043 0 1.8-.481 1.8-1.559v-1.312h-.1c-.223.375-.64 1.096-1.905 1.096-1.57 0-2.765-1.143-2.765-3.2 0-2.027 1.154-3.328 2.789-3.328 1.265 0 1.687.779 1.91 1.131h.1v-1.049h1.025v6.721c0 1.693-1.26 2.42-2.854 2.42Zm-.03-3.633c1.19 0 1.84-.855 1.84-2.285 0-1.389-.632-2.361-1.84-2.361-1.247 0-1.868 1.054-1.868 2.361 0 1.348.639 2.285 1.869 2.285ZM62.57 236v-6.551h1.02v1.008h.07c.24-.662.92-1.102 1.7-1.102.152 0 .41.012.533.018v1.061a3.936 3.936 0 0 0-.633-.059c-.944 0-1.635.639-1.635 1.523V236H62.57Zm7.078.141c-1.898 0-3.07-1.348-3.07-3.364 0-2.009 1.16-3.41 2.947-3.41 1.39 0 2.854.856 2.854 3.276v.439h-5.086v-.891h4.517l-.492.329c0-1.29-.609-2.215-1.793-2.215-1.183 0-1.88.978-1.88 2.045v.591c0 1.459.808 2.262 2.01 2.262.773 0 1.353-.34 1.599-1.008l1.02.282c-.305.99-1.284 1.664-2.626 1.664Zm6.996 0c-1.898 0-3.07-1.348-3.07-3.364 0-2.009 1.16-3.41 2.948-3.41 1.388 0 2.853.856 2.853 3.276v.439h-5.086v-.891h4.518l-.493.329c0-1.29-.609-2.215-1.792-2.215-1.184 0-1.881.978-1.881 2.045v.591c0 1.459.808 2.262 2.01 2.262.773 0 1.353-.34 1.599-1.008l1.02.282c-.305.99-1.284 1.664-2.626 1.664Zm4.243-.141v-6.551h1.025l.006 1.465h-.082c.264-1.06 1.066-1.582 1.916-1.582.95 0 1.553.645 1.729 1.594h-.141c.234-.979 1.101-1.594 2.144-1.594 1.137 0 2.063.732 2.063 2.25V236h-1.06v-4.389c0-.943-.616-1.318-1.319-1.318-.885 0-1.424.603-1.424 1.43V236H84.69v-4.494c0-.727-.544-1.213-1.283-1.213-.767 0-1.465.539-1.465 1.582V236h-1.054Zm13.265.141c-1.898 0-3.07-1.348-3.07-3.364 0-2.009 1.16-3.41 2.947-3.41 1.389 0 2.854.856 2.854 3.276v.439h-5.086v-.891h4.517l-.492.329c0-1.29-.61-2.215-1.793-2.215-1.183 0-1.88.978-1.88 2.045v.591c0 1.459.808 2.262 2.01 2.262.773 0 1.353-.34 1.599-1.008l1.02.282c-.305.99-1.284 1.664-2.626 1.664Zm5.297-4.067V236h-1.055v-6.551h1.014l.006 1.588h-.146c.398-1.207 1.16-1.67 2.15-1.67 1.324 0 2.221.815 2.221 2.473V236h-1.061v-4.072c0-1.008-.562-1.612-1.476-1.612-.944 0-1.653.639-1.653 1.758Zm8.625-2.625v.903h-3.386v-.903h3.386Zm-2.402-1.558h1.055v6.41c0 .586.216.844.773.844.135 0 .363-.036.539-.071l.217.891a2.547 2.547 0 0 1-.785.117c-1.131 0-1.799-.627-1.799-1.699v-6.492Z"/>
    <path fill="#0B5CAD" d="M149.605 221.629h81.469v.82h-81.469v-.82ZM46 237.629h62.496v.82H46v-.82Z"/>
    <path fill="#fff" d="M152 248h8l-4 4-4-4Z"/>
  </g>
  <rect width="81" height="16" x="116" y="255" fill="#ECECEF" rx="8"/>
  <rect width="81" height="16" x="116" y="255" stroke="#BFBFC3" rx="8"/>
  <path fill="#535158" d="M125.055 267v-8.73h5.32v.984h-4.207v2.848h3.92v.984h-3.92v2.93h4.26V267h-5.373Zm6.545 0 2.584-3.768-.006.809-2.444-3.592h1.231l.814 1.272c.422.656.698 1.218 1.026 1.746h-.551c.334-.528.562-1.09.99-1.746l.832-1.272h1.207l-2.455 3.639v-.779l2.561 3.691h-1.225l-.961-1.471c-.416-.638-.68-1.177-1.002-1.687h.557c-.322.51-.545 1.049-.967 1.687l-.973 1.471H131.6Zm7.095 2.449v-9h1.02v1.049h.117c.217-.346.621-1.131 1.898-1.131 1.635 0 2.778 1.301 2.778 3.375 0 2.086-1.137 3.399-2.772 3.399-1.248 0-1.687-.791-1.904-1.155h-.082v3.463h-1.055Zm2.883-3.252c1.225 0 1.858-1.09 1.858-2.467 0-1.359-.616-2.419-1.858-2.419-1.207 0-1.84.972-1.84 2.419 0 1.459.651 2.467 1.84 2.467Zm7.219.944c-1.899 0-3.07-1.348-3.07-3.364 0-2.009 1.16-3.41 2.947-3.41 1.388 0 2.853.856 2.853 3.276v.439h-5.086v-.891h4.518l-.492.329c0-1.29-.61-2.215-1.793-2.215-1.184 0-1.881.978-1.881 2.045v.591c0 1.459.809 2.262 2.01 2.262.773 0 1.353-.34 1.599-1.008l1.02.282c-.305.99-1.283 1.664-2.625 1.664Zm4.242-.141v-6.551h1.02v1.008h.07c.24-.662.92-1.102 1.699-1.102.152 0 .41.012.533.018v1.061a3.919 3.919 0 0 0-.632-.059c-.944 0-1.635.639-1.635 1.523V267h-1.055Zm4.711 0v-6.551h1.055V267h-1.055Zm.533-7.623c-.398 0-.732-.311-.732-.697 0-.387.334-.698.732-.698.405 0 .738.311.738.698 0 .386-.333.697-.738.697Zm2.373 7.623v-6.551h1.026l.006 1.465h-.083c.264-1.06 1.067-1.582 1.916-1.582.95 0 1.553.645 1.729 1.594h-.141c.235-.979 1.102-1.594 2.145-1.594 1.137 0 2.062.732 2.062 2.25V267h-1.06v-4.389c0-.943-.615-1.318-1.318-1.318-.885 0-1.424.603-1.424 1.43V267h-1.055v-4.494c0-.727-.545-1.213-1.283-1.213-.768 0-1.465.539-1.465 1.582V267h-1.055Zm13.266.141c-1.899 0-3.07-1.348-3.07-3.364 0-2.009 1.16-3.41 2.947-3.41 1.389 0 2.853.856 2.853 3.276v.439h-5.086v-.891h4.518l-.492.329c0-1.29-.61-2.215-1.793-2.215-1.184 0-1.881.978-1.881 2.045v.591c0 1.459.809 2.262 2.01 2.262.773 0 1.353-.34 1.599-1.008l1.02.282c-.305.99-1.283 1.664-2.625 1.664Zm5.297-4.067V267h-1.055v-6.551h1.014l.006 1.588h-.147c.399-1.207 1.16-1.67 2.151-1.67 1.324 0 2.22.815 2.22 2.473V267h-1.06v-4.072c0-1.008-.563-1.612-1.477-1.612-.943 0-1.652.639-1.652 1.758Zm8.625-2.625v.903h-3.387v-.903h3.387Zm-2.403-1.558h1.055v6.41c0 .586.217.844.774.844.134 0 .363-.036.539-.071l.216.891a2.537 2.537 0 0 1-.785.117c-1.131 0-1.799-.627-1.799-1.699v-6.492Z"/>
  <rect width="84" height="19" x="-1.5" y="1.5" stroke="#1F75CB" stroke-width="3" rx="9.5" transform="matrix(1 0 0 -1 116 274)"/>
  <rect width="82" height="17" x="-.5" y=".5" stroke="#fff" stroke-linejoin="round" rx="8.5" transform="matrix(1 0 0 -1 116 272)"/>
  <defs>
    <clipPath id="b">
      <path fill="#fff" d="M272 24h16v16h-16z"/>
    </clipPath>
    <filter id="a" width="296" height="252" x="8" y="10" color-interpolation-filters="sRGB" filterUnits="userSpaceOnUse">
      <feFlood flood-opacity="0" result="BackgroundImageFix"/>
      <feColorMatrix in="SourceAlpha" result="hardAlpha" values="0 0 0 0 0 0 0 0 0 0 0 0 0 0 0 0 0 0 127 0"/>
      <feOffset/>
      <feGaussianBlur stdDeviation="1"/>
      <feComposite in2="hardAlpha" operator="out"/>
      <feColorMatrix values="0 0 0 0 0.121569 0 0 0 0 0.117647 0 0 0 0 0.141176 0 0 0 0.16 0"/>
      <feBlend in2="BackgroundImageFix" result="effect1_dropShadow_17367_33651"/>
      <feColorMatrix in="SourceAlpha" result="hardAlpha" values="0 0 0 0 0 0 0 0 0 0 0 0 0 0 0 0 0 0 127 0"/>
      <feOffset dy="2"/>
      <feGaussianBlur stdDeviation="4"/>
      <feComposite in2="hardAlpha" operator="out"/>
      <feColorMatrix values="0 0 0 0 0.121569 0 0 0 0 0.117647 0 0 0 0 0.141176 0 0 0 0.16 0"/>
      <feBlend in2="effect1_dropShadow_17367_33651" result="effect2_dropShadow_17367_33651"/>
      <feBlend in="SourceGraphic" in2="effect2_dropShadow_17367_33651" result="shape"/>
    </filter>
  </defs>
</svg>
